<?phpxml version="1.0" standalone="no"?>
<!DOCTYPE svg PUBLIC "-//W3C//DTD SVG 1.1//EN" "http://www.w3.org/Graphics/SVG/1.1/DTD/svg11.dtd" >
<svg xmlns="http://www.w3.org/2000/svg" xmlns:xlink="http://www.w3.org/1999/xlink" version="1.1">
<metadata></metadata>
<defs>
<font id="robotoregular" horiz-adv-x="1164" >
<font-face units-per-em="2048" ascent="1536" descent="-512" />
<missing-glyph horiz-adv-x="509" />
<glyph unicode="&#xfb01;" horiz-adv-x="1140" d="M28 936v146h170v117q0 182 106.5 282t295.5 100q67 0 132 -15.5t153 -45.5l-34 -160q-53 21 -113 36t-123 15q-117 0 -168.5 -52t-51.5 -160v-117h215v-146h-215v-936h-197v936h-170zM783 0v1082h198v-1082h-198z" />
<glyph horiz-adv-x="0" />
<glyph unicode="&#xd;" horiz-adv-x="509" />
<glyph horiz-adv-x="0" />
<glyph unicode="&#x9;" horiz-adv-x="0" />
<glyph unicode=" "  horiz-adv-x="509" />
<glyph unicode="&#x09;" horiz-adv-x="509" />
<glyph unicode="&#xa0;" horiz-adv-x="509" />
<glyph unicode="!" horiz-adv-x="539" d="M171 0v204h198v-204h-198zM171 478v978h197v-978h-197z" />
<glyph unicode="&#x22;" horiz-adv-x="733" d="M126 936l1 240v280h197v-270l-101 -250h-97zM435 936v520h198v-270l-101 -250h-97z" />
<glyph unicode="#" horiz-adv-x="1276" d="M70 410v140h264l68 348h-256v142h284l82 416h151l-82 -416h255l82 416h151l-82 -416h199v-142h-226l-68 -348h219v-140h-247l-80 -410h-152l80 410h-255l-80 -410h-151l80 410h-236zM485 550h255l68 348h-255z" />
<glyph unicode="$" horiz-adv-x="1193" d="M131 424l2 5h190q0 -154 78 -219.5t190 -65.5q129 0 201.5 61.5t72.5 170.5q0 90 -63.5 153.5t-210.5 113.5q-202 61 -305 163t-103 272q0 165 95 269t261 125v221h158v-222q167 -22 259.5 -137t92.5 -308h-196q0 127 -63 206t-174 79q-118 0 -177 -61.5t-59 -168.5 q0 -97 61 -157t219 -114q204 -66 303 -164.5t99 -267.5q0 -172 -103 -273.5t-283 -120.5v-192h-157v191q-172 18 -282 125.5t-106 315.5z" />
<glyph unicode="%" horiz-adv-x="1498" d="M104 1099v77q0 127 82 214t219 87t219 -86.5t82 -214.5v-77q0 -127 -81.5 -213t-217.5 -86q-138 0 -220.5 86t-82.5 213zM250 1099q0 -74 40.5 -125.5t116.5 -51.5q73 0 113 51t40 126v77q0 74 -40.5 126.5t-114.5 52.5q-75 0 -115 -52.5t-40 -126.5v-77zM349 177 l711 1138l109 -67l-711 -1138zM809 279v78q0 127 82 213.5t219 86.5q136 0 218.5 -86.5t82.5 -213.5v-78q0 -128 -82 -214t-217 -86q-138 0 -220.5 86t-82.5 214zM955 279q0 -75 40.5 -126.5t116.5 -51.5q73 0 113 51.5t40 126.5v78q0 74 -41 126t-114 52q-74 0 -114.5 -52 t-40.5 -126v-78z" />
<glyph unicode="&#x26;" horiz-adv-x="1276" d="M64 392q0 122 70.5 213.5t210.5 183.5q-78 99 -116 176.5t-38 159.5q0 169 97.5 260.5t268.5 91.5q158 0 257 -91t99 -219q0 -98 -52.5 -169.5t-155.5 -146.5l-109 -80l340 -409q41 65 64 144t23 167h176q0 -132 -39 -244t-113 -201l185 -223l-2 -5h-229l-85 102 q-80 -60 -177 -91.5t-201 -31.5q-217 0 -345.5 115t-128.5 298zM261 392q0 -113 71 -186t206 -73q72 0 142 24.5t132 70.5l-361 435l-40 -29q-91 -68 -120.5 -130t-29.5 -112zM388 1127q0 -53 27 -110.5t81 -125.5l138 95q57 38 77.5 82.5t20.5 98.5q0 61 -48.5 108 t-126.5 47q-81 0 -125 -56.5t-44 -138.5z" />
<glyph unicode="'" horiz-adv-x="445" d="M126 951l1 265v240h197v-223l-101 -282h-97z" />
<glyph unicode="(" horiz-adv-x="679" d="M132 582v9q0 394 159 673t334 372l6 -1l38 -116q-137 -107 -238.5 -343t-101.5 -583v-13q0 -347 101 -583t239 -352l-38 -108h-6q-175 93 -334 371.5t-159 673.5z" />
<glyph unicode=")" horiz-adv-x="687" d="M6 -355q135 105 237.5 345.5t102.5 589.5v13q0 342 -105.5 583.5t-234.5 351.5l38 108h6q174 -93 333.5 -372t159.5 -673v-9q0 -395 -159.5 -673.5t-333.5 -371.5h-6z" />
<glyph unicode="*" horiz-adv-x="884" d="M88 763l49 154l236 -90l-10 254h161l-10 -260l233 89l48 -156l-242 -68l153 -200l-132 -96l-140 218l-135 -210l-133 92l158 206z" />
<glyph unicode="+" horiz-adv-x="1162" d="M78 605v178h402v423h197v-423h399v-178h-399v-459h-197v459h-402z" />
<glyph unicode="," horiz-adv-x="404" d="M48 -258l70 316v163h197v-173l-150 -306h-117z" />
<glyph unicode="-" horiz-adv-x="923" d="M167 538v154h590v-154h-590z" />
<glyph unicode="." horiz-adv-x="548" d="M161 0v202h197v-202h-197z" />
<glyph unicode="/" horiz-adv-x="850" d="M16 -125l608 1581h167l-607 -1581h-168z" />
<glyph unicode="0" horiz-adv-x="1153" d="M113 514v428q0 245 125.5 390t336.5 145q212 0 338.5 -145t126.5 -390v-428q0 -247 -125.5 -391t-337.5 -144q-211 0 -337.5 144t-126.5 391zM310 474q0 -157 70.5 -249t196.5 -92q128 0 197 91.5t69 249.5v509q0 157 -70 248t-198 91q-127 0 -196 -91t-69 -248v-509z " />
<glyph unicode="1" horiz-adv-x="1153" d="M195 1271v152l515 54v-1477h-198v1274z" />
<glyph unicode="2" horiz-adv-x="1153" d="M138 1052q-5 178 119 301.5t337 123.5q195 0 307 -108t112 -279q0 -115 -63.5 -225t-193.5 -276l-367 -430l2 -5h663v-154h-904v135l457 545q122 148 165.5 235.5t43.5 176.5q0 101 -59 165.5t-163 64.5q-129 0 -196.5 -79t-67.5 -197h-190z" />
<glyph unicode="3" horiz-adv-x="1153" d="M120 378l2 6h188q0 -106 76.5 -178.5t197.5 -72.5q120 0 189 74.5t69 194.5q0 137 -63.5 205t-199.5 68h-162v153h162q132 0 186.5 65.5t54.5 183.5q0 110 -59.5 177.5t-176.5 67.5q-114 0 -188.5 -70.5t-74.5 -176.5h-188l-3 6q-5 164 124 280t330 116q203 0 318 -102.5 t115 -301.5q0 -102 -53.5 -186t-149.5 -131q110 -44 167.5 -133.5t57.5 -216.5q0 -200 -126.5 -313.5t-328.5 -113.5q-186 0 -327.5 109.5t-136.5 289.5z" />
<glyph unicode="4" horiz-adv-x="1153" d="M72 336v111l613 1009h208v-966h201v-154h-201v-336h-196v336h-625zM283 490h414v683l-6 1l-19 -50z" />
<glyph unicode="5" horiz-adv-x="1153" d="M157 377l2 6h178q0 -119 68.5 -184.5t177.5 -65.5q125 0 194 88t69 241q0 139 -69.5 225t-193.5 86q-116 0 -168 -35t-77 -108l-163 17l84 809h729v-175h-563l-47 -419q47 35 104 57.5t130 23.5q202 2 316.5 -126.5t114.5 -352.5q0 -219 -117.5 -352t-342.5 -133 q-185 0 -308 101t-118 297z" />
<glyph unicode="6" horiz-adv-x="1153" d="M137 552v335q0 256 145.5 423t358.5 167q86 0 170 -17t139 -43l-42 -151q-57 25 -120 40.5t-147 15.5q-137 0 -222.5 -117t-85.5 -296v-113q61 61 144.5 96t179.5 35q188 0 297.5 -126t109.5 -331q0 -224 -122.5 -357.5t-330.5 -133.5q-202 0 -338 153.5t-136 419.5z M333 533q0 -185 80.5 -292.5t197.5 -107.5q123 0 189.5 93.5t66.5 243.5q0 142 -71.5 226t-201.5 84q-93 0 -159.5 -39.5t-101.5 -106.5v-101z" />
<glyph unicode="7" horiz-adv-x="1153" d="M97 1301v155h966v-155q-276 -328 -373 -579t-97 -563v-159h-197v159q0 330 121.5 594.5t351.5 547.5h-772z" />
<glyph unicode="8" horiz-adv-x="1153" d="M102 400q0 123 76.5 217t206.5 138q-112 42 -177 128.5t-65 200.5q0 191 122.5 292t319.5 101q186 0 305.5 -101.5t119.5 -291.5q0 -114 -64 -200.5t-170 -129.5q124 -43 199 -137t75 -217q0 -201 -130.5 -311t-332.5 -110q-214 0 -349.5 110t-135.5 311zM299 404 q0 -123 80.5 -197t207.5 -74q114 0 190.5 74.5t76.5 196.5q0 119 -77.5 196t-191.5 77q-124 0 -205 -77t-81 -196zM340 1081q0 -111 70 -180t177 -69q97 0 161.5 69t64.5 180q0 105 -65.5 173t-162.5 68q-107 0 -176 -65.5t-69 -175.5z" />
<glyph unicode="9" horiz-adv-x="1153" d="M93 978q0 220 127 359.5t314 139.5q218 0 350 -137t132 -387v-442q0 -251 -144 -391.5t-371 -140.5q-77 0 -157.5 16t-150.5 47l30 150q66 -32 129.5 -45.5t148.5 -13.5q142 0 229.5 98t87.5 278v124q-48 -71 -119.5 -107.5t-156.5 -36.5q-210 0 -329.5 129.5 t-119.5 359.5zM290 978q0 -150 66 -242.5t186 -92.5q103 0 173.5 47t102.5 120v172q0 163 -73 251.5t-205 88.5q-107 0 -178.5 -95.5t-71.5 -248.5z" />
<glyph unicode=":" horiz-adv-x="517" d="M161 0v202h197v-202h-197zM161 876v202h197v-202h-197z" />
<glyph unicode=";" horiz-adv-x="525" d="M99 -258l70 316v163h197v-173l-150 -306h-117zM162 876v202h197v-202h-197z" />
<glyph unicode="&#x3c;" horiz-adv-x="1040" d="M71 486v149l816 378v-201l-559 -233l-85 -18v-6l85 -19l559 -228v-201z" />
<glyph unicode="=" horiz-adv-x="1153" d="M152 407v164h834v-164h-834zM152 823v164h834v-164h-834z" />
<glyph unicode="&#x3e;" horiz-adv-x="1072" d="M136 87v196l598 238l85 17v6l-85 20l-598 234v195l856 -378v-149z" />
<glyph unicode="?" horiz-adv-x="974" d="M61 1122q-3 161 113.5 258t296.5 97q197 0 306 -100.5t109 -280.5q0 -129 -70.5 -236t-186.5 -219q-54 -54 -65.5 -97t-11.5 -134h-197q1 145 25 201t126 148q99 117 141 180t42 152q0 106 -56.5 163t-161.5 57q-91 0 -155 -49.5t-64 -145.5h-188zM353 0v208h206v-208 h-206z" />
<glyph unicode="@" horiz-adv-x="1833" d="M114 478q19 423 249 688t602 265q379 0 581.5 -250t185.5 -679q-9 -214 -120 -368.5t-332 -154.5q-73 0 -126 41.5t-76 117.5q-50 -80 -122 -119.5t-168 -39.5q-125 0 -194 120.5t-51 316.5q23 259 137.5 415.5t279.5 156.5q105 0 169 -26t139 -80l-4 -4h6l-51 -585 q-9 -110 21.5 -151.5t81.5 -41.5q123 0 197 113.5t82 288.5q16 382 -144 595.5t-496 213.5q-308 0 -495.5 -231t-202.5 -602q-18 -376 150 -594.5t482 -218.5q88 0 178.5 21.5t152.5 56.5l38 -107q-67 -42 -170.5 -65.5t-202.5 -23.5q-380 0 -587.5 249.5t-189.5 681.5z M720 416q-11 -142 21.5 -216t106.5 -74q64 0 117 24.5t97 87.5q-1 12 -0.5 25.5t2.5 29.5l47 538q-26 12 -54.5 19t-59.5 7q-125 0 -191 -109.5t-86 -331.5z" />
<glyph unicode="A" horiz-adv-x="1295" d="M43 0l525 1456h169l514 -1456h-201l-128 375h-548l-130 -375h-201zM431 540h435l-212 625h-6z" />
<glyph unicode="B" horiz-adv-x="1302" d="M170 0v1456h475q228 0 357 -98.5t129 -295.5q0 -94 -58 -168.5t-154 -113.5q143 -20 226.5 -124t83.5 -245q0 -200 -130 -305.5t-352 -105.5h-577zM367 154h380q135 0 209.5 66.5t74.5 188.5q0 121 -76 195t-205 79h-13h-370v-529zM367 837h319q110 0 179 60.5t69 168.5 q0 118 -74.5 176.5t-214.5 58.5h-278v-464z" />
<glyph unicode="C" horiz-adv-x="1297" d="M118 598v259q0 269 155.5 444.5t402.5 175.5q247 1 393 -131q142 -128 142 -337v-12l-2 -6h-189q0 153 -90 242t-254 89q-165 0 -263 -133t-98 -330v-261q0 -199 98 -332t263 -133q164 0 254 88.5t90 244.5h189l2 -6v-11q0 -198 -144 -332q-148 -138 -391 -138 q-247 0 -402.5 175t-155.5 444z" />
<glyph unicode="D" horiz-adv-x="1387" d="M170 0v1456h458q285 0 458.5 -175.5t173.5 -453.5v-199q0 -279 -173.5 -453.5t-458.5 -174.5h-458zM367 154h261q202 0 318.5 133t116.5 341v201q0 206 -116.5 339t-318.5 133h-261v-1147z" />
<glyph unicode="E" horiz-adv-x="1130" d="M170 0v1456h886v-155h-689v-471h598v-155h-598v-521h700v-154h-897z" />
<glyph unicode="F" horiz-adv-x="1130" d="M170 0v1456h913v-155h-716v-502h614v-155h-614v-644h-197z" />
<glyph unicode="G" horiz-adv-x="1387" d="M121 578v300q0 265 159 432t410 167q243 0 384 -129q137 -126 137 -319v-11l-2 -6h-189q0 133 -86 221.5t-244 88.5q-167 0 -269 -125t-102 -317v-302q0 -194 108 -319.5t276 -125.5q129 0 204.5 33.5t112.5 79.5v328h-330v154h527v-532q-52 -81 -180.5 -149t-333.5 -68 q-252 0 -417 167t-165 432z" />
<glyph unicode="H" horiz-adv-x="1441" d="M170 0v1456h197v-658h707v658h197v-1456h-197v643h-707v-643h-197z" />
<glyph unicode="I" horiz-adv-x="579" d="M190 0v1456h198v-1456h-198z" />
<glyph unicode="J" horiz-adv-x="1123" d="M79 395l2 6h189q0 -136 63 -202t179 -66q109 0 178 79t69 210v1034h197v-1034q0 -203 -123.5 -323t-320.5 -120q-201 0 -320 107q-113 102 -113 293v16z" />
<glyph unicode="K" horiz-adv-x="1302" d="M170 0v1456h197v-644h108l540 644h222l2 -5l-590 -689l632 -757l-2 -5h-239l-545 658h-128v-658h-197z" />
<glyph unicode="L" horiz-adv-x="1126" d="M170 0v1456h197v-1302h710v-154h-907z" />
<glyph unicode="M" horiz-adv-x="1779" d="M170 0v1456h259l463 -1183h6l465 1183h245v-1456h-197v1091l-6 1l-441 -1092h-137l-454 1128l-6 -1v-1127h-197z" />
<glyph unicode="N" horiz-adv-x="1442" d="M170 0v1456h197l701 -1111l6 2v1109h197v-1456h-197l-701 1112l-6 -2v-1110h-197z" />
<glyph unicode="O" horiz-adv-x="1396" d="M113 598v259q0 266 159.5 443t414.5 177q264 0 429.5 -176.5t165.5 -443.5v-259q0 -267 -165.5 -443t-429.5 -176q-255 0 -414.5 176t-159.5 443zM310 598q0 -202 102.5 -330t274.5 -128q183 0 290.5 127.5t107.5 330.5v261q0 200 -108 328t-290 128q-172 0 -274.5 -128 t-102.5 -328v-261z" />
<glyph unicode="P" horiz-adv-x="1302" d="M170 0v1456h557q233 0 362.5 -120t129.5 -316q0 -198 -129.5 -317t-362.5 -119h-360v-584h-197zM367 738h360q148 0 221 79.5t73 200.5t-73.5 202t-220.5 81h-360v-563z" />
<glyph unicode="Q" horiz-adv-x="1427" d="M113 598v259q0 266 159.5 443t414.5 177q264 0 429.5 -176.5t165.5 -443.5v-259q0 -115 -33.5 -217.5t-95.5 -183.5l217 -211l-135 -129l-222 213q-70 -45 -152 -68t-174 -23q-255 0 -414.5 176t-159.5 443zM310 598q0 -202 102.5 -330t274.5 -128q183 0 290.5 127.5 t107.5 330.5v261q0 200 -108 328t-290 128q-172 0 -274.5 -128t-102.5 -328v-261z" />
<glyph unicode="R" horiz-adv-x="1303" d="M170 0v1455h498q239 0 365 -106t126 -308q0 -112 -58.5 -195t-170.5 -132q120 -39 172.5 -126.5t52.5 -216.5v-137q0 -68 15 -122t52 -88v-24h-203q-39 34 -50 100t-11 136v133q0 118 -69 190t-185 72h-337v-631h-197zM367 786h281q167 0 240.5 63.5t73.5 193.5 q0 123 -71.5 190.5t-222.5 67.5h-301v-515z" />
<glyph unicode="S" horiz-adv-x="1252" d="M114 413l2 6h188q0 -137 104 -211.5t235 -74.5q140 0 221.5 63t81.5 171q0 99 -71 166t-250 114q-222 55 -346.5 162t-124.5 269q0 171 134 285t348 114q230 -1 366 -131q133 -127 133 -294v-10l-3 -6h-188q0 124 -86.5 205t-221.5 81q-138 0 -211.5 -67t-73.5 -174 q0 -95 80.5 -158.5t261.5 -111.5q220 -57 335 -168t115 -274q0 -176 -138.5 -283t-361.5 -107q-211 0 -373 118q-157 114 -156 304v12z" />
<glyph unicode="T" horiz-adv-x="1225" d="M37 1301v155h1151v-155h-480v-1301h-197v1301h-474z" />
<glyph unicode="U" horiz-adv-x="1386" d="M147 489v967h197v-967q0 -167 95.5 -261.5t246.5 -94.5q160 0 260.5 94.5t100.5 261.5v967h197v-967q0 -240 -156 -375t-402 -135q-237 0 -388 135.5t-151 374.5z" />
<glyph unicode="V" horiz-adv-x="1295" d="M22 1456h214l376 -1074l33 -121h6l33 121l376 1074h213l-541 -1456h-169z" />
<glyph unicode="W" horiz-adv-x="1763" d="M37 1456h213l212 -951l25 -191l6 -1l34 192l258 951h193l260 -951l34 -195h6l27 195l208 951h214l-352 -1456h-176l-291 1010l-22 131h-6l-21 -131l-295 -1010h-176z" />
<glyph unicode="X" horiz-adv-x="1295" d="M66 0l472 734l-462 722h236l338 -568l340 568h238l-462 -722l472 -734h-235l-349 578l-350 -578h-238z" />
<glyph unicode="Y" horiz-adv-x="1295" d="M40 1456h225l380 -740l380 740h225l-511 -944v-512h-196v527z" />
<glyph unicode="Z" horiz-adv-x="1225" d="M97 0v146l778 1155h-767v155h992v-141l-781 -1161h814v-154h-1036z" />
<glyph unicode="[" horiz-adv-x="552" d="M143 -312v1976h385v-155h-188v-1666h188v-155h-385z" />
<glyph unicode="\" horiz-adv-x="846" d="M39 1456h186l608 -1581h-186z" />
<glyph unicode="]" horiz-adv-x="552" d="M11 -157h189v1666h-189v155h386v-1976h-386v155z" />
<glyph unicode="^" horiz-adv-x="856" d="M61 729l299 727h134l298 -727h-181l-166 419l-16 70h-6l-16 -70l-163 -419h-183z" />
<glyph unicode="_" horiz-adv-x="931" d="M4 0h923v-154h-923v154z" />
<glyph unicode="`" horiz-adv-x="641" d="M82 1512l3 6h230l175 -266h-158z" />
<glyph unicode="a" horiz-adv-x="1126" d="M106 304q0 155 125.5 242.5t340.5 87.5h214v107q0 95 -58 150.5t-164 55.5q-96 0 -155 -48t-59 -115l-187 -2l-2 6v13q1 110 111 203q118 98 303 98q184 0 296 -93.5t112 -269.5v-521q0 -58 6 -112t22 -106h-203q-10 49 -15.5 86.5t-6.5 75.5q-55 -78 -143.5 -130.5 t-190.5 -52.5q-169 0 -257.5 86.5t-88.5 238.5zM303 300q0 -72 45 -114t133 -42q107 0 193 55t112 126v176h-221q-119 0 -190.5 -60t-71.5 -141z" />
<glyph unicode="b" d="M143 0v1560h197v-606q51 72 126.5 110t176.5 38q200 0 312 -160t112 -421v-21q0 -234 -112.5 -377.5t-309.5 -143.5q-108 0 -187.5 42.5t-131.5 125.5l-32 -147h-151zM340 309q38 -80 99.5 -125t155.5 -45q139 0 207 99t68 262v21q0 186 -68.5 303.5t-208.5 117.5 q-91 0 -153.5 -44.5t-99.5 -119.5v-469z" />
<glyph unicode="c" horiz-adv-x="1072" d="M97 520v42q0 229 124.5 384.5t351.5 155.5q181 0 297 -112q112 -108 111 -264v-11l-2 -6h-179q0 99 -64.5 168.5t-162.5 69.5q-145 0 -211.5 -112.5t-66.5 -272.5v-42q0 -163 65.5 -275t212.5 -112q91 0 159 60.5t68 148.5h178l3 -6v-9q0 -135 -120 -239 q-124 -108 -288 -109q-228 0 -352 155t-124 386z" />
<glyph unicode="d" d="M98 500v21q0 261 111.5 421t312.5 160q95 0 168.5 -35t125.5 -102v595h197v-1560h-151l-30 137q-53 -78 -131 -118t-181 -40q-198 0 -310 143.5t-112 377.5zM295 500q0 -164 67 -262.5t208 -98.5q88 0 148 40t98 112v505q-38 67 -98.5 106.5t-145.5 39.5 q-142 0 -209.5 -117t-67.5 -304v-21z" />
<glyph unicode="e" horiz-adv-x="1072" d="M97 520v44q0 233 134.5 385.5t328.5 152.5q217 0 325.5 -135t108.5 -359v-104h-692l-3 -5q0 -163 72 -264.5t220 -101.5q100 0 175.5 28.5t129.5 78.5l77 -128q-58 -56 -153 -94.5t-229 -38.5q-233 0 -363.5 149t-130.5 392zM307 664l2 -5h488v16q0 118 -58 195t-179 77 q-103 0 -170.5 -79.5t-82.5 -203.5z" />
<glyph unicode="f" horiz-adv-x="674" d="M56 936v146h169v137q0 173 90.5 267.5t252.5 94.5q34 0 68.5 -5.5t76.5 -15.5l-24 -150q-18 4 -43.5 7t-53.5 3q-86 0 -128 -51.5t-42 -149.5v-137h196v-146h-196v-936h-197v936h-169z" />
<glyph unicode="g" d="M108 500v21q0 261 111.5 421t311.5 160q103 0 181 -41.5t131 -119.5l24 141h157v-1088q0 -208 -121 -319.5t-349 -111.5q-78 0 -168.5 21.5t-159.5 58.5l30 153q57 -30 137.5 -48.5t158.5 -18.5q144 0 209.5 65.5t65.5 199.5v123q-53 -68 -127 -103t-171 -35 q-198 0 -309.5 143.5t-111.5 377.5zM305 500q0 -163 67 -262t207 -99q89 0 149 40.5t99 114.5v498q-38 69 -99 109.5t-147 40.5q-141 0 -208.5 -117t-67.5 -304v-21z" />
<glyph unicode="h" d="M143 0v1560h197v-623q56 78 137.5 121.5t180.5 43.5q173 0 269.5 -104t96.5 -320v-678h-197v680q0 134 -57.5 198t-171.5 64q-88 0 -153 -34.5t-105 -96.5v-811h-197z" />
<glyph unicode="i" horiz-adv-x="516" d="M159 0v1082h197v-1082h-197zM159 1359v201h197v-201h-197z" />
<glyph unicode="j" horiz-adv-x="530" d="M-66 -419l14 155q14 -5 40 -8.5t43 -3.5q65 0 103.5 44t38.5 143v1171h197v-1171q0 -167 -86 -257.5t-239 -90.5q-31 0 -56.5 4.5t-54.5 13.5zM167 1363v197h197v-197h-197z" />
<glyph unicode="k" horiz-adv-x="1050" d="M144 0v1560h197v-904h99l325 426h236l-393 -499l427 -583h-233l-360 499h-101v-499h-197z" />
<glyph unicode="l" horiz-adv-x="516" d="M159 0v1560h197v-1560h-197z" />
<glyph unicode="m" horiz-adv-x="1790" d="M143 0v1082h176l14 -142q53 77 134.5 119.5t189.5 42.5t185.5 -50t116.5 -150q52 93 135.5 146.5t195.5 53.5q165 0 261 -113.5t96 -341.5v-647h-197v649q0 160 -55 226.5t-164 66.5q-101 0 -163.5 -70t-73.5 -177v-8v-687h-198v649q0 152 -56.5 222.5t-162.5 70.5 q-90 0 -148 -37t-89 -104v-801h-197z" />
<glyph unicode="n" d="M143 0v1082h176l14 -161q54 86 135.5 133.5t185.5 47.5q175 0 271 -102.5t96 -316.5v-683h-197v679q0 143 -56.5 203t-172.5 60q-91 0 -154.5 -36.5t-100.5 -102.5v-803h-197z" />
<glyph unicode="o" d="M97 529v22q0 240 130 395.5t353 155.5q225 0 355.5 -155t130.5 -396v-22q0 -242 -130 -396t-354 -154t-354.5 154.5t-130.5 395.5zM294 529q0 -172 72.5 -284t215.5 -112q141 0 214 112t73 284v22q0 170 -73.5 283t-215.5 113q-141 0 -213.5 -113t-72.5 -283v-22z" />
<glyph unicode="p" d="M143 -416v1498h151l31 -140q53 78 132 119t184 41q201 0 312.5 -159.5t111.5 -421.5v-21q0 -234 -112 -377.5t-309 -143.5q-100 0 -175.5 33.5t-128.5 100.5v-529h-197zM340 275q37 -67 97 -104.5t147 -37.5q140 0 212 102.5t72 264.5v21q0 184 -72.5 302.5t-213.5 118.5 q-85 0 -145 -38.5t-97 -105.5v-523z" />
<glyph unicode="q" d="M98 500v21q0 261 111.5 421t312.5 160q98 0 173 -37.5t128 -108.5l28 126h151v-1498h-197v518q-52 -61 -123 -92t-162 -31q-198 0 -310 143.5t-112 377.5zM295 500q0 -164 67.5 -265.5t207.5 -101.5q81 0 138.5 36t96.5 101v546q-39 61 -96.5 96t-136.5 35 q-141 0 -209 -119.5t-68 -306.5v-21z" />
<glyph unicode="r" horiz-adv-x="717" d="M143 0v1082h176l19 -158q46 84 113.5 131t155.5 47q22 0 42 -3.5t33 -7.5l-27 -183l-101 6q-78 0 -131.5 -37t-82.5 -104v-773h-197z" />
<glyph unicode="s" horiz-adv-x="1071" d="M109 329l2 6h188q5 -105 78 -153.5t171 -48.5q105 0 164.5 44.5t59.5 113.5q0 65 -49.5 106t-187.5 72q-191 41 -293.5 115t-102.5 198q0 132 112.5 226t291.5 94q184 0 298 -100q109 -96 109 -222v-11l-2 -6h-188q0 70 -61.5 127t-155.5 57q-104 0 -155.5 -47 t-51.5 -112q0 -64 44.5 -99t183.5 -64q199 -42 302 -119t103 -201q0 -144 -116.5 -235t-304.5 -91q-207 0 -326 105q-113 100 -113 232v13z" />
<glyph unicode="t" horiz-adv-x="690" d="M48 936v146h172v261h197v-261h205v-146h-205v-657q0 -76 31.5 -107t83.5 -31q17 0 38 4.5t35 9.5l27 -135q-22 -18 -65 -29.5t-85 -11.5q-120 0 -191 72.5t-71 227.5v657h-172z" />
<glyph unicode="u" d="M139 444v638h197v-640q0 -173 51 -238t159 -65q105 0 173.5 42.5t103.5 120.5v780h197v-1082h-177l-13 160q-51 -87 -131 -134t-185 -47q-177 0 -276 113t-99 352z" />
<glyph unicode="v" horiz-adv-x="1030" d="M46 1082h202l256 -763l17 -76h6l19 76l249 763h201l-398 -1082h-149z" />
<glyph unicode="w" horiz-adv-x="1550" d="M45 1082h205l170 -688l25 -139h6l26 139l216 688h158l217 -688l28 -155h6l32 155l160 688h206l-314 -1082h-159l-214 659l-41 172h-6l-38 -172l-210 -659h-159z" />
<glyph unicode="x" horiz-adv-x="1030" d="M46 0l361 547l-351 535h227l227 -399l230 399h230l-351 -535l361 -547h-226l-240 409l-240 -409h-228z" />
<glyph unicode="y" horiz-adv-x="1030" d="M26 1082h220l228 -681l35 -136h6l266 817h219l-455 -1248q-41 -109 -117.5 -190t-206.5 -81q-24 0 -61 5.5t-57 10.5l20 155q-6 1 35.5 -2t52.5 -3q63 0 103 56t67 124l47 113z" />
<glyph unicode="z" horiz-adv-x="1030" d="M94 0v138l585 788h-578v156h819v-134l-591 -794h625v-154h-860z" />
<glyph unicode="{" horiz-adv-x="696" d="M63 543v147q106 0 157.5 61.5t51.5 174.5v206q0 171 82 290.5t277 174.5l40 -117q-110 -35 -156 -125.5t-46 -222.5v-206q0 -105 -42.5 -185t-127.5 -125q85 -46 127.5 -126.5t42.5 -183.5v-205q0 -132 46 -221.5t156 -125.5l-40 -118q-195 55 -277 175t-82 290v205 q0 112 -51.5 174.5t-157.5 62.5z" />
<glyph unicode="|" horiz-adv-x="507" d="M145 -270v1726h197v-1726h-197z" />
<glyph unicode="}" horiz-adv-x="696" d="M21 -246q109 36 156 125.5t47 221.5v205q0 107 45 187t139 123q-94 41 -139 121t-45 189v206q0 132 -47 222.5t-156 125.5l41 117q194 -55 276.5 -174.5t82.5 -290.5v-206q0 -113 50.5 -174.5t158.5 -61.5v-147q-108 0 -158.5 -62.5t-50.5 -174.5v-205q0 -170 -82.5 -290 t-276.5 -175z" />
<glyph unicode="~" horiz-adv-x="1391" d="M128 474q0 136 85.5 232.5t217.5 96.5q88 0 163 -34.5t160 -104.5q58 -51 106 -74t100 -23q66 0 114.5 57t48.5 134l141 -18q0 -137 -87 -238t-217 -101q-90 0 -163.5 33t-158.5 107q-59 48 -108 72t-99 24q-67 0 -114.5 -53t-47.5 -128z" />
<glyph unicode="&#xa1;" horiz-adv-x="507" d="M144 -374v978h197v-978h-197zM144 876v206h197v-206h-197z" />
<glyph unicode="&#xa2;" horiz-adv-x="1122" d="M97 520v42q0 202 99 350t282 181v225h198v-227q140 -30 225 -134.5t82 -242.5l-3 -5h-180q0 99 -64.5 168.5t-162.5 69.5q-145 0 -211.5 -112.5t-66.5 -272.5v-42q0 -163 65.5 -275t212.5 -112q91 0 159 60.5t68 148.5h180l2 -5q3 -116 -86 -215t-220 -130v-237h-198v233 q-184 31 -282.5 179t-98.5 353z" />
<glyph unicode="&#xa3;" horiz-adv-x="1194" d="M70 615v155h158l-10 270q0 204 112 320.5t300 116.5q200 0 310 -104.5t106 -276.5l-2 -6h-190q0 118 -63 175t-161 57q-99 0 -157 -74.5t-58 -207.5l10 -270h418v-155h-413l6 -149q0 -90 -15.5 -171.5t-44.5 -140.5h735l-1 -154h-976v154h10q48 13 72 111t24 201l-6 149 h-164z" />
<glyph unicode="&#xa4;" horiz-adv-x="1456" d="M104 112l138 140q-50 76 -76.5 166.5t-26.5 189.5q0 102 28.5 196t82.5 172l-146 149l139 139l143 -146q74 55 163 85.5t185 30.5q97 0 186 -31t164 -87l146 149l140 -140l-150 -153q52 -78 80.5 -170.5t28.5 -193.5q0 -98 -26.5 -187.5t-74.5 -165.5l142 -143l-140 -139 l-133 135q-77 -62 -169.5 -95t-193.5 -33t-193.5 32.5t-167.5 93.5l-130 -132zM321 608q0 -188 120.5 -320.5t292.5 -132.5q170 0 290.5 132.5t120.5 320.5q0 186 -120.5 318t-290.5 132q-172 0 -292.5 -132t-120.5 -318z" />
<glyph unicode="&#xa5;" horiz-adv-x="1243" d="M30 1456h226l359 -663l360 663h224l-418 -718h312v-123h-383v-167h383v-122h-383v-326h-197v326h-375v122h375v167h-375v123h311z" />
<glyph unicode="&#xa6;" horiz-adv-x="499" d="M145 -270v792h197v-792h-197zM145 698v758h197v-758h-197z" />
<glyph unicode="&#xa7;" horiz-adv-x="1259" d="M94 551q0 91 47 161.5t134 111.5q-68 50 -102 119.5t-34 166.5q0 166 134 266.5t358 100.5q233 0 363 -111.5t126 -313.5l-3 -6h-188q0 118 -79 197t-219 79q-145 0 -220 -59.5t-75 -150.5q0 -99 67 -148.5t278 -107.5q244 -69 355.5 -159.5t111.5 -265.5q0 -94 -48 -164 t-135 -110q69 -51 104 -119t35 -166q0 -172 -133 -269.5t-358 -97.5q-221 0 -372 102.5t-146 322.5l2 6l188 2q0 -143 96.5 -210.5t231.5 -67.5q137 0 215.5 59.5t78.5 150.5t-72 141.5t-276 113.5q-239 63 -352 156t-113 270zM291 553q0 -100 68 -151.5t278 -110.5 q56 -17 93 -28t70 -23q72 20 112 69.5t40 118.5q0 91 -73.5 144.5t-275.5 116.5q-47 12 -88.5 24.5t-77.5 27.5q-73 -19 -109.5 -69t-36.5 -119z" />
<glyph unicode="&#xa8;" horiz-adv-x="1021" d="M170 1256v200h219v-200h-219zM640 1256v200h219v-200h-219z" />
<glyph unicode="&#xa9;" horiz-adv-x="1604" d="M88 729q0 315 207 531t503 216q295 0 502 -216t207 -531q0 -316 -207.5 -533t-501.5 -217q-296 0 -503 217t-207 533zM209 729q0 -265 171.5 -447t417.5 -182q245 0 417 182t172 447q0 263 -172 444t-417 181q-246 0 -417.5 -181t-171.5 -444zM436 669v119q0 173 94 280 t254 107q157 0 245.5 -79t84.5 -228l-2 -6h-146q0 95 -45.5 138.5t-136.5 43.5q-94 0 -145 -70.5t-51 -184.5v-120q0 -117 51 -187t145 -70q91 0 136 43t45 141h146l2 -6q4 -151 -84 -229.5t-245 -78.5q-160 0 -254 106.5t-94 280.5z" />
<glyph unicode="&#xaa;" horiz-adv-x="917" d="M120 920q0 110 84.5 170t245.5 60h139v52q0 63 -30 97t-88 34q-67 0 -103.5 -27t-36.5 -76l-162 13l-1 6q-6 98 78.5 163t224.5 65q134 0 212 -71t78 -205v-314q0 -50 6 -94t20 -87h-174q-8 21 -13 45t-8 50q-33 -47 -89.5 -78t-133.5 -31q-119 0 -184 61t-65 167z M293 924q0 -45 29 -69t89 -24q51 0 105.5 30t72.5 65v110h-138q-75 0 -116.5 -33t-41.5 -79z" />
<glyph unicode="&#xab;" horiz-adv-x="966" d="M97 506v19l295 389h148l-255 -399l255 -398h-148zM432 506v19l295 389h148l-255 -399l255 -398h-148z" />
<glyph unicode="&#xac;" horiz-adv-x="1137" d="M127 637v165h835v-427h-198v262h-637z" />
<glyph unicode="&#xad;" horiz-adv-x="923" d="M167 538v154h590v-154h-590z" />
<glyph unicode="&#xae;" horiz-adv-x="1604" d="M88 729q0 315 207 531t503 216q295 0 502 -216t207 -531q0 -316 -207.5 -533t-501.5 -217q-296 0 -503 217t-207 533zM209 729q0 -266 171.5 -447.5t417.5 -181.5q244 0 416 182t172 447q0 264 -171.5 444.5t-416.5 180.5q-246 0 -417.5 -180.5t-171.5 -444.5zM504 316 v850h280q152 0 238.5 -65.5t86.5 -191.5q0 -62 -33 -109t-96 -78q66 -26 95.5 -79t29.5 -128v-56q0 -41 3.5 -73.5t13.5 -53.5v-16h-153q-9 21 -11 61.5t-2 82.5v54q0 72 -33.5 106t-110.5 34h-159v-338h-149zM653 784h152q65 1 110.5 32.5t45.5 87.5q0 73 -39.5 102.5 t-137.5 29.5h-131v-252z" />
<glyph unicode="&#xaf;" horiz-adv-x="950" d="M123 1310v146h721v-146h-721z" />
<glyph unicode="&#xb0;" horiz-adv-x="763" d="M128 1216q0 106 76 183.5t181 77.5q103 0 177.5 -77.5t74.5 -183.5q0 -108 -74 -182.5t-178 -74.5q-106 0 -181.5 74.5t-75.5 182.5zM259 1216q0 -55 36.5 -91t89.5 -36q52 0 87.5 36t35.5 91t-36 92.5t-87 37.5q-53 0 -89.5 -37.5t-36.5 -92.5z" />
<glyph unicode="&#xb1;" horiz-adv-x="1097" d="M99 702v154h381v411h177v-411h358v-154h-358v-413h-177v413h-381zM136 4v155h835v-155h-835z" />
<glyph unicode="&#xb2;" horiz-adv-x="868" d="M119 1240q-6 99 78 169t225 70q135 0 211 -64t76 -180q0 -80 -44.5 -136t-160.5 -161l-153 -135l2 -6h361v-130h-592v130l302 262q69 60 91 97.5t22 79.5q0 50 -28.5 81t-86.5 31q-67 0 -103.5 -32t-36.5 -82h-161z" />
<glyph unicode="&#xb3;" horiz-adv-x="876" d="M112 882l1 6h163q0 -46 37.5 -74.5t100.5 -28.5q72 0 114 29.5t42 77.5q0 62 -36.5 90.5t-109.5 28.5h-132v126h132q67 0 99.5 28.5t32.5 80.5q0 43 -36.5 72t-105.5 29q-56 0 -90.5 -24t-34.5 -64h-162l-2 6q-6 94 78.5 153.5t210.5 59.5q145 0 229 -59.5t84 -169.5 q0 -55 -35.5 -100.5t-97.5 -71.5q70 -23 108 -71t38 -116q0 -111 -90 -173t-236 -62q-127 0 -217.5 58t-84.5 169z" />
<glyph unicode="&#xb4;" horiz-adv-x="654" d="M131 1252l185 266h230l2 -6l-269 -260h-148z" />
<glyph unicode="&#xb5;" d="M153 -416v1498h196v-642q2 -178 57.5 -242.5t155.5 -64.5q98 0 158.5 36t92.5 106v807h197v-1082h-177l-9 108q-44 -63 -107.5 -96t-146.5 -33q-72 0 -126.5 16.5t-94.5 51.5v-463h-196z" />
<glyph unicode="&#xb6;" horiz-adv-x="1006" d="M63 988q0 207 129.5 337.5t362.5 130.5h281v-1456h-197v520h-84q-233 0 -362.5 129.5t-129.5 338.5z" />
<glyph unicode="&#xb7;" horiz-adv-x="540" d="M161 624v212h198v-212h-198z" />
<glyph unicode="&#xb8;" horiz-adv-x="509" d="M119 -326q72 0 116 24.5t44 73.5q0 48 -36 67t-123 26l32 135h140l-12 -52q65 -11 108 -52t43 -121q0 -96 -79 -153t-226 -57z" />
<glyph unicode="&#xb9;" horiz-adv-x="557" d="M95 1320v134l301 23v-812h-174v655h-127z" />
<glyph unicode="&#xba;" horiz-adv-x="933" d="M120 1025v117q0 148 94 241.5t251 93.5q158 0 252 -93.5t94 -241.5v-117q0 -149 -93.5 -241.5t-250.5 -92.5q-158 0 -252.5 92.5t-94.5 241.5zM293 1025q0 -88 44 -140.5t130 -52.5q83 0 127.5 53t44.5 140v117q0 84 -45 137.5t-129 53.5t-128 -53.5t-44 -137.5v-117z " />
<glyph unicode="&#xbb;" horiz-adv-x="966" d="M116 170l231 380l-231 380h148l278 -357h5l1 -9l5 -5l-2 -9l2 -9l-5 -6l-1 -7h-4l-279 -358h-148zM462 170l231 380l-231 380h148l278 -357h5l1 -9l5 -5l-2 -9l2 -9l-5 -6l-1 -7h-4l-279 -358h-148z" />
<glyph unicode="&#xbc;" horiz-adv-x="1595" d="M184 1319v134l301 23v-812h-174v655h-127zM339 185l711 1138l109 -67l-711 -1138zM785 254l422 547h173v-519h126v-130h-126v-152h-170v152h-417zM967 282h243v310l-6 1l-13 -22z" />
<glyph unicode="&#xbd;" horiz-adv-x="1708" d="M184 1319v134l301 23v-812h-174v655h-127zM352 185l711 1138l109 -67l-711 -1138zM930 573q-6 99 78 169t225 70q135 0 211 -64t76 -180q0 -80 -44.5 -136t-160.5 -161l-153 -135l2 -6h361v-130h-592v130l302 262q69 60 91 97.5t22 79.5q0 50 -28.5 81t-86.5 31 q-67 0 -103.5 -32t-36.5 -82h-161z" />
<glyph unicode="&#xbe;" horiz-adv-x="1781" d="M128 883l1 6h163q0 -46 37.5 -74.5t100.5 -28.5q72 0 114 29.5t42 77.5q0 62 -36.5 90.5t-109.5 28.5h-132v126h132q67 0 99.5 28.5t32.5 80.5q0 43 -36.5 72t-105.5 29q-56 0 -90.5 -24t-34.5 -64h-162l-2 6q-6 94 78.5 153.5t210.5 59.5q145 0 229 -59.5t84 -169.5 q0 -55 -35.5 -100.5t-97.5 -71.5q70 -23 108 -71t38 -116q0 -111 -90 -173t-236 -62q-127 0 -217.5 58t-84.5 169zM522 185l711 1138l109 -67l-711 -1138zM974 254l422 547h173v-519h126v-130h-126v-152h-170v152h-417zM1156 282h243v310l-6 1l-13 -22z" />
<glyph unicode="&#xbf;" horiz-adv-x="1013" d="M114 -13q0 127 70 233.5t187 220.5q53 53 65 96t12 135h197q-2 -146 -26 -202t-125 -147q-100 -118 -141.5 -181t-41.5 -150q0 -106 56 -163t162 -57q90 0 154.5 49.5t64.5 145.5h188l3 -6q2 -161 -114.5 -258t-295.5 -97q-198 0 -306.5 100.5t-108.5 280.5zM441 874v209 h206v-209h-206z" />
<glyph unicode="&#xc0;" horiz-adv-x="1295" d="M43 0l525 1456h169l514 -1456h-201l-128 375h-548l-130 -375h-201zM323 1861l3 6h230l175 -266h-158zM431 540h435l-212 625h-6z" />
<glyph unicode="&#xc1;" horiz-adv-x="1295" d="M43 0l525 1456h169l514 -1456h-201l-128 375h-548l-130 -375h-201zM431 540h435l-212 625h-6zM558 1597l185 266h230l2 -6l-269 -260h-148z" />
<glyph unicode="&#xc2;" horiz-adv-x="1295" d="M43 0l525 1456h169l514 -1456h-201l-128 375h-548l-130 -375h-201zM342 1601v26l246 237h120l248 -238v-25h-161l-147 148l-146 -148h-160zM431 540h435l-212 625h-6z" />
<glyph unicode="&#xc3;" horiz-adv-x="1295" d="M43 0l525 1456h169l514 -1456h-201l-128 375h-548l-130 -375h-201zM301 1628q0 93 59 161.5t150 68.5q56 0 140 -47t136 -47q41 0 71 32.5t30 79.5l108 -32q0 -94 -59.5 -159t-149.5 -65q-71 0 -148 46.5t-128 46.5q-43 0 -72 -32.5t-29 -78.5zM431 540h435l-212 625h-6z " />
<glyph unicode="&#xc4;" horiz-adv-x="1295" d="M43 0l525 1456h169l514 -1456h-201l-128 375h-548l-130 -375h-201zM304 1605v200h219v-200h-219zM431 540h435l-212 625h-6zM774 1605v200h219v-200h-219z" />
<glyph unicode="&#xc5;" horiz-adv-x="1295" d="M43 0l525 1456h169l514 -1456h-201l-128 375h-548l-130 -375h-201zM431 540h435l-212 625h-6zM471 1734q0 72 51.5 120.5t124.5 48.5q72 0 122.5 -48.5t50.5 -120.5q0 -73 -50.5 -118.5t-122.5 -45.5q-74 0 -125 46t-51 118zM571 1734q0 -31 22.5 -52.5t53.5 -21.5 q30 0 51.5 21t21.5 53t-21.5 54.5t-51.5 22.5q-32 0 -54 -22.5t-22 -54.5z" />
<glyph unicode="&#xc6;" horiz-adv-x="1999" d="M14 0l881 1456h967v-155h-691l20 -466h590v-155h-584l22 -526h705v-154h-895l-15 350h-557l-201 -350h-242zM560 529h447l-31 710l-5 2z" />
<glyph unicode="&#xc7;" horiz-adv-x="1297" d="M118 598v259q0 269 155.5 444.5t402.5 175.5t393 -131.5t142 -348.5l-2 -6h-189q0 153 -90 242t-254 89q-165 0 -263 -133t-98 -330v-261q0 -199 98 -332t263 -133q164 0 254 88.5t90 244.5h189l2 -6q4 -205 -144 -343t-391 -138q-247 0 -402.5 175t-155.5 444zM581 -335 q72 0 116 24.5t44 73.5q0 48 -36 67t-123 26l32 135h140l-12 -52q65 -11 108 -52t43 -121q0 -96 -79 -153t-226 -57z" />
<glyph unicode="&#xc8;" horiz-adv-x="1130" d="M170 0v1456h886v-155h-689v-471h598v-155h-598v-521h700v-154h-897zM294 1861l3 6h230l175 -266h-158z" />
<glyph unicode="&#xc9;" horiz-adv-x="1130" d="M170 0v1456h886v-155h-689v-471h598v-155h-598v-521h700v-154h-897zM529 1597l185 266h230l2 -6l-269 -260h-148z" />
<glyph unicode="&#xca;" horiz-adv-x="1130" d="M170 0v1456h886v-155h-689v-471h598v-155h-598v-521h700v-154h-897zM313 1601v26l246 237h120l248 -238v-25h-161l-147 148l-146 -148h-160z" />
<glyph unicode="&#xcb;" horiz-adv-x="1130" d="M170 0v1456h886v-155h-689v-471h598v-155h-598v-521h700v-154h-897zM275 1605v200h219v-200h-219zM745 1605v200h219v-200h-219z" />
<glyph unicode="&#xcc;" horiz-adv-x="579" d="M-35 1861l3 6h230l175 -266h-158zM190 0v1456h198v-1456h-198z" />
<glyph unicode="&#xcd;" horiz-adv-x="579" d="M190 0v1456h198v-1456h-198zM199 1597l185 266h230l2 -6l-269 -260h-148z" />
<glyph unicode="&#xce;" horiz-adv-x="579" d="M-16 1601v26l246 237h120l248 -238v-25h-161l-147 148l-146 -148h-160zM190 0v1456h198v-1456h-198z" />
<glyph unicode="&#xcf;" horiz-adv-x="579" d="M-54 1605v200h219v-200h-219zM190 0v1456h198v-1456h-198zM416 1605v200h219v-200h-219z" />
<glyph unicode="&#xd0;" horiz-adv-x="1387" d="M2 663v155h168v638h458q285 0 458.5 -175.5t173.5 -453.5v-199q0 -279 -173.5 -453.5t-458.5 -174.5h-458v663h-168zM367 154h261q202 0 318.5 133t116.5 341v201q0 206 -116.5 339t-318.5 133h-261v-483h276v-155h-276v-509z" />
<glyph unicode="&#xd1;" horiz-adv-x="1442" d="M170 0v1456h197l701 -1111l6 2v1109h197v-1456h-197l-701 1112l-6 -2v-1110h-197zM372 1628q0 93 59 161.5t150 68.5q56 0 140 -47t136 -47q41 0 71 32.5t30 79.5l108 -32q0 -94 -59.5 -159t-149.5 -65q-71 0 -148 46.5t-128 46.5q-43 0 -72 -32.5t-29 -78.5z" />
<glyph unicode="&#xd2;" horiz-adv-x="1396" d="M113 598v259q0 266 159.5 443t414.5 177q264 0 429.5 -176.5t165.5 -443.5v-259q0 -267 -165.5 -443t-429.5 -176q-255 0 -414.5 176t-159.5 443zM310 598q0 -202 102.5 -330t274.5 -128q183 0 290.5 127.5t107.5 330.5v261q0 200 -108 328t-290 128q-172 0 -274.5 -128 t-102.5 -328v-261zM373 1882l3 6h230l175 -266h-158z" />
<glyph unicode="&#xd3;" horiz-adv-x="1396" d="M113 598v259q0 266 159.5 443t414.5 177q264 0 429.5 -176.5t165.5 -443.5v-259q0 -267 -165.5 -443t-429.5 -176q-255 0 -414.5 176t-159.5 443zM310 598q0 -202 102.5 -330t274.5 -128q183 0 290.5 127.5t107.5 330.5v261q0 200 -108 328t-290 128q-172 0 -274.5 -128 t-102.5 -328v-261zM608 1618l185 266h230l2 -6l-269 -260h-148z" />
<glyph unicode="&#xd4;" horiz-adv-x="1396" d="M113 598v259q0 266 159.5 443t414.5 177q264 0 429.5 -176.5t165.5 -443.5v-259q0 -267 -165.5 -443t-429.5 -176q-255 0 -414.5 176t-159.5 443zM310 598q0 -202 102.5 -330t274.5 -128q183 0 290.5 127.5t107.5 330.5v261q0 200 -108 328t-290 128q-172 0 -274.5 -128 t-102.5 -328v-261zM392 1622v26l246 237h120l248 -238v-25h-161l-147 148l-146 -148h-160z" />
<glyph unicode="&#xd5;" horiz-adv-x="1396" d="M113 598v259q0 266 159.5 443t414.5 177q264 0 429.5 -176.5t165.5 -443.5v-259q0 -267 -165.5 -443t-429.5 -176q-255 0 -414.5 176t-159.5 443zM310 598q0 -202 102.5 -330t274.5 -128q183 0 290.5 127.5t107.5 330.5v261q0 200 -108 328t-290 128q-172 0 -274.5 -128 t-102.5 -328v-261zM351 1649q0 93 59 161.5t150 68.5q56 0 140 -47t136 -47q41 0 71 32.5t30 79.5l108 -32q0 -94 -59.5 -159t-149.5 -65q-71 0 -148 46.5t-128 46.5q-43 0 -72 -32.5t-29 -78.5z" />
<glyph unicode="&#xd6;" horiz-adv-x="1396" d="M113 598v259q0 266 159.5 443t414.5 177q264 0 429.5 -176.5t165.5 -443.5v-259q0 -267 -165.5 -443t-429.5 -176q-255 0 -414.5 176t-159.5 443zM310 598q0 -202 102.5 -330t274.5 -128q183 0 290.5 127.5t107.5 330.5v261q0 200 -108 328t-290 128q-172 0 -274.5 -128 t-102.5 -328v-261zM354 1626v200h219v-200h-219zM824 1626v200h219v-200h-219z" />
<glyph unicode="&#xd7;" horiz-adv-x="1096" d="M88 351l327 334l-327 334l126 126l326 -333l327 333l126 -126l-328 -334l328 -334l-126 -126l-327 332l-326 -332z" />
<glyph unicode="&#xd8;" horiz-adv-x="1396" d="M113 598v259q0 266 159.5 443t414.5 177q94 0 178.5 -25.5t156.5 -71.5l81 137h149l-132 -221q77 -84 119.5 -197t42.5 -242v-259q0 -267 -165.5 -443t-429.5 -176q-85 0 -160.5 20.5t-139.5 60.5l-91 -154h-149l139 234q-84 84 -128.5 202t-44.5 256zM310 598 q0 -85 19 -158t54 -125l6 -1l544 916q-50 41 -112 63t-134 22q-172 0 -274.5 -128t-102.5 -328v-261zM475 208q44 -34 97 -51t115 -17q183 0 290.5 127.5t107.5 330.5v261q0 75 -16.5 142t-46.5 117l-6 1z" />
<glyph unicode="&#xd9;" horiz-adv-x="1386" d="M147 489v967h197v-967q0 -167 95.5 -261.5t246.5 -94.5q160 0 260.5 94.5t100.5 261.5v967h197v-967q0 -240 -156 -375t-402 -135q-237 0 -388 135.5t-151 374.5zM372 1861l3 6h230l175 -266h-158z" />
<glyph unicode="&#xda;" horiz-adv-x="1386" d="M147 489v967h197v-967q0 -167 95.5 -261.5t246.5 -94.5q160 0 260.5 94.5t100.5 261.5v967h197v-967q0 -240 -156 -375t-402 -135q-237 0 -388 135.5t-151 374.5zM607 1597l185 266h230l2 -6l-269 -260h-148z" />
<glyph unicode="&#xdb;" horiz-adv-x="1386" d="M147 489v967h197v-967q0 -167 95.5 -261.5t246.5 -94.5q160 0 260.5 94.5t100.5 261.5v967h197v-967q0 -240 -156 -375t-402 -135q-237 0 -388 135.5t-151 374.5zM391 1601v26l246 237h120l248 -238v-25h-161l-147 148l-146 -148h-160z" />
<glyph unicode="&#xdc;" horiz-adv-x="1386" d="M147 489v967h197v-967q0 -167 95.5 -261.5t246.5 -94.5q160 0 260.5 94.5t100.5 261.5v967h197v-967q0 -240 -156 -375t-402 -135q-237 0 -388 135.5t-151 374.5zM353 1605v200h219v-200h-219zM823 1605v200h219v-200h-219z" />
<glyph unicode="&#xdd;" horiz-adv-x="1295" d="M40 1456h225l380 -740l380 740h225l-511 -944v-512h-196v527zM556 1596l185 266h230l2 -6l-269 -260h-148z" />
<glyph unicode="&#xde;" horiz-adv-x="1209" d="M163 0v1456h197v-293h269q232 0 362 -118t130 -307q0 -190 -130 -307.5t-362 -117.5h-269v-313h-197zM360 467h269q147 0 220.5 78t73.5 191q0 114 -73.5 193.5t-220.5 79.5h-269v-542z" />
<glyph unicode="&#xdf;" horiz-adv-x="1221" d="M137 0v1082q0 223 117.5 348t300.5 125q161 0 262 -86t101 -253q0 -118 -64.5 -228t-64.5 -167q0 -82 173.5 -224t173.5 -281q0 -167 -104.5 -252t-282.5 -85q-84 0 -172.5 20.5t-125.5 50.5l44 159q43 -28 108 -52t126 -24q108 0 159 47.5t51 125.5q0 84 -173.5 227.5 t-173.5 289.5q0 80 70.5 190.5t70.5 186.5q0 93 -51 147t-117 54q-104 0 -168 -83.5t-64 -235.5v-1082h-196z" />
<glyph unicode="&#xe0;" horiz-adv-x="1126" d="M106 304q0 155 125.5 242.5t340.5 87.5h214v107q0 95 -58 150.5t-164 55.5q-96 0 -155 -48t-59 -115l-187 -2l-2 6q-7 118 110.5 216t303.5 98q184 0 296 -93.5t112 -269.5v-521q0 -58 6 -112t22 -106h-203q-10 49 -15.5 86.5t-6.5 75.5q-55 -78 -143.5 -130.5 t-190.5 -52.5q-169 0 -257.5 86.5t-88.5 238.5zM230 1539l3 6h230l175 -266h-158zM303 300q0 -72 45 -114t133 -42q107 0 193 55t112 126v176h-221q-119 0 -190.5 -60t-71.5 -141z" />
<glyph unicode="&#xe1;" horiz-adv-x="1126" d="M106 304q0 155 125.5 242.5t340.5 87.5h214v107q0 95 -58 150.5t-164 55.5q-96 0 -155 -48t-59 -115l-187 -2l-2 6q-7 118 110.5 216t303.5 98q184 0 296 -93.5t112 -269.5v-521q0 -58 6 -112t22 -106h-203q-10 49 -15.5 86.5t-6.5 75.5q-55 -78 -143.5 -130.5 t-190.5 -52.5q-169 0 -257.5 86.5t-88.5 238.5zM303 300q0 -72 45 -114t133 -42q107 0 193 55t112 126v176h-221q-119 0 -190.5 -60t-71.5 -141zM465 1275l185 266h230l2 -6l-269 -260h-148z" />
<glyph unicode="&#xe2;" horiz-adv-x="1126" d="M106 304q0 155 125.5 242.5t340.5 87.5h214v107q0 95 -58 150.5t-164 55.5q-96 0 -155 -48t-59 -115l-187 -2l-2 6q-7 118 110.5 216t303.5 98q184 0 296 -93.5t112 -269.5v-521q0 -58 6 -112t22 -106h-203q-10 49 -15.5 86.5t-6.5 75.5q-55 -78 -143.5 -130.5 t-190.5 -52.5q-169 0 -257.5 86.5t-88.5 238.5zM249 1279v26l246 237h120l248 -238v-25h-161l-147 148l-146 -148h-160zM303 300q0 -72 45 -114t133 -42q107 0 193 55t112 126v176h-221q-119 0 -190.5 -60t-71.5 -141z" />
<glyph unicode="&#xe3;" horiz-adv-x="1126" d="M106 304q0 155 125.5 242.5t340.5 87.5h214v107q0 95 -58 150.5t-164 55.5q-96 0 -155 -48t-59 -115l-187 -2l-2 6q-7 118 110.5 216t303.5 98q184 0 296 -93.5t112 -269.5v-521q0 -58 6 -112t22 -106h-203q-10 49 -15.5 86.5t-6.5 75.5q-55 -78 -143.5 -130.5 t-190.5 -52.5q-169 0 -257.5 86.5t-88.5 238.5zM208 1306q0 93 59 161.5t150 68.5q56 0 140 -47t136 -47q41 0 71 32.5t30 79.5l108 -32q0 -94 -59.5 -159t-149.5 -65q-71 0 -148 46.5t-128 46.5q-43 0 -72 -32.5t-29 -78.5zM303 300q0 -72 45 -114t133 -42q107 0 193 55 t112 126v176h-221q-119 0 -190.5 -60t-71.5 -141z" />
<glyph unicode="&#xe4;" horiz-adv-x="1126" d="M106 304q0 155 125.5 242.5t340.5 87.5h214v107q0 95 -58 150.5t-164 55.5q-96 0 -155 -48t-59 -115l-187 -2l-2 6q-7 118 110.5 216t303.5 98q184 0 296 -93.5t112 -269.5v-521q0 -58 6 -112t22 -106h-203q-10 49 -15.5 86.5t-6.5 75.5q-55 -78 -143.5 -130.5 t-190.5 -52.5q-169 0 -257.5 86.5t-88.5 238.5zM211 1283v200h219v-200h-219zM303 300q0 -72 45 -114t133 -42q107 0 193 55t112 126v176h-221q-119 0 -190.5 -60t-71.5 -141zM681 1283v200h219v-200h-219z" />
<glyph unicode="&#xe5;" horiz-adv-x="1126" d="M106 304q0 155 125.5 242.5t340.5 87.5h214v107q0 95 -58 150.5t-164 55.5q-96 0 -155 -48t-59 -115l-187 -2l-2 6q-7 118 110.5 216t303.5 98q184 0 296 -93.5t112 -269.5v-521q0 -58 6 -112t22 -106h-203q-10 49 -15.5 86.5t-6.5 75.5q-55 -78 -143.5 -130.5 t-190.5 -52.5q-169 0 -257.5 86.5t-88.5 238.5zM303 300q0 -72 45 -114t133 -42q107 0 193 55t112 126v176h-221q-119 0 -190.5 -60t-71.5 -141zM378 1412q0 72 51.5 120.5t124.5 48.5q72 0 122.5 -48.5t50.5 -120.5q0 -73 -50.5 -118.5t-122.5 -45.5q-74 0 -125 46t-51 118 zM478 1412q0 -31 22.5 -52.5t53.5 -21.5q30 0 51.5 21t21.5 53t-21.5 54.5t-51.5 22.5q-32 0 -54 -22.5t-22 -54.5z" />
<glyph unicode="&#xe6;" horiz-adv-x="1789" d="M88 304q0 157 115 243t335 86h229v87q0 106 -52 166.5t-149 60.5q-103 0 -164 -55t-61 -133l-188 18l-2 6q-5 138 110 228.5t305 90.5q114 0 201.5 -40.5t137.5 -117.5q64 75 151.5 116.5t188.5 41.5q214 0 329.5 -130t115.5 -358v-119h-709l-2 -5q1 -159 79.5 -258 t233.5 -99q103 0 169.5 27.5t144.5 78.5l67 -138q-53 -44 -147 -83t-234 -39q-136 0 -240 48.5t-170 138.5q-56 -79 -167.5 -133t-271.5 -54q-170 0 -262.5 87t-92.5 238zM285 300q0 -74 50 -120.5t147 -46.5q76 0 159 43.5t126 100.5v214h-227q-120 0 -187.5 -55.5 t-67.5 -135.5zM983 645l2 -5h508v31q0 122 -60 199t-188 77q-113 0 -182 -84.5t-80 -217.5z" />
<glyph unicode="&#xe7;" horiz-adv-x="1072" d="M97 520v42q0 229 124.5 384.5t351.5 155.5q181 0 296.5 -112t111.5 -275l-2 -6h-179q0 99 -64.5 168.5t-162.5 69.5q-145 0 -211.5 -112.5t-66.5 -272.5v-42q0 -163 65.5 -275t212.5 -112q91 0 159 60.5t68 148.5h178l3 -6q4 -140 -120 -248.5t-288 -108.5 q-228 0 -352 155t-124 386zM450 -335q72 0 116 24.5t44 73.5q0 48 -36 67t-123 26l32 135h140l-12 -52q65 -11 108 -52t43 -121q0 -96 -79 -153t-226 -57z" />
<glyph unicode="&#xe8;" horiz-adv-x="1072" d="M97 520v44q0 233 134.5 385.5t328.5 152.5q217 0 325.5 -135t108.5 -359v-104h-692l-3 -5q0 -163 72 -264.5t220 -101.5q100 0 175.5 28.5t129.5 78.5l77 -128q-58 -56 -153 -94.5t-229 -38.5q-233 0 -363.5 149t-130.5 392zM214 1540l3 6h230l175 -266h-158zM307 664 l2 -5h488v16q0 118 -58 195t-179 77q-103 0 -170.5 -79.5t-82.5 -203.5z" />
<glyph unicode="&#xe9;" horiz-adv-x="1072" d="M97 520v44q0 233 134.5 385.5t328.5 152.5q217 0 325.5 -135t108.5 -359v-104h-692l-3 -5q0 -163 72 -264.5t220 -101.5q100 0 175.5 28.5t129.5 78.5l77 -128q-58 -56 -153 -94.5t-229 -38.5q-233 0 -363.5 149t-130.5 392zM307 664l2 -5h488v16q0 118 -58 195t-179 77 q-103 0 -170.5 -79.5t-82.5 -203.5zM449 1276l185 266h230l2 -6l-269 -260h-148z" />
<glyph unicode="&#xea;" horiz-adv-x="1072" d="M97 520v44q0 233 134.5 385.5t328.5 152.5q217 0 325.5 -135t108.5 -359v-104h-692l-3 -5q0 -163 72 -264.5t220 -101.5q100 0 175.5 28.5t129.5 78.5l77 -128q-58 -56 -153 -94.5t-229 -38.5q-233 0 -363.5 149t-130.5 392zM233 1280v26l246 237h120l248 -238v-25h-161 l-147 148l-146 -148h-160zM307 664l2 -5h488v16q0 118 -58 195t-179 77q-103 0 -170.5 -79.5t-82.5 -203.5z" />
<glyph unicode="&#xeb;" horiz-adv-x="1072" d="M97 520v44q0 233 134.5 385.5t328.5 152.5q217 0 325.5 -135t108.5 -359v-104h-692l-3 -5q0 -163 72 -264.5t220 -101.5q100 0 175.5 28.5t129.5 78.5l77 -128q-58 -56 -153 -94.5t-229 -38.5q-233 0 -363.5 149t-130.5 392zM195 1284v200h219v-200h-219zM307 664l2 -5 h488v16q0 118 -58 195t-179 77q-103 0 -170.5 -79.5t-82.5 -203.5zM665 1284v200h219v-200h-219z" />
<glyph unicode="&#xec;" horiz-adv-x="515" d="M-72 1518l3 6h230l175 -266h-158zM153 0v1082h197v-1082h-197z" />
<glyph unicode="&#xed;" horiz-adv-x="515" d="M153 0v1082h197v-1082h-197zM162 1254l185 266h230l2 -6l-269 -260h-148z" />
<glyph unicode="&#xee;" horiz-adv-x="515" d="M-53 1258v26l246 237h120l248 -238v-25h-161l-147 148l-146 -148h-160zM153 0v1082h197v-1082h-197z" />
<glyph unicode="&#xef;" horiz-adv-x="515" d="M-91 1262v200h219v-200h-219zM153 0v1082h197v-1082h-197zM379 1262v200h219v-200h-219z" />
<glyph unicode="&#xf0;" horiz-adv-x="1202" d="M72 466q0 228 138 370t351 142q90 0 169.5 -37t131.5 -97l4 5q-9 109 -51.5 197t-110.5 154l-290 -165l-77 102l256 146q-39 22 -80.5 39t-85.5 31l60 164q79 -19 151 -52t135 -79l218 125l77 -102l-195 -112q95 -104 147 -241.5t52 -300.5v-220q0 -245 -144 -400.5 t-359 -155.5q-218 0 -357.5 140t-139.5 347zM269 466q0 -132 82 -232.5t222 -100.5q133 0 217.5 114t84.5 288v148q-35 59 -115.5 99.5t-198.5 40.5q-131 0 -211.5 -104t-80.5 -253z" />
<glyph unicode="&#xf1;" d="M143 0v1082h176l14 -161q54 86 135.5 133.5t185.5 47.5q175 0 271 -102.5t96 -316.5v-683h-197v679q0 143 -56.5 203t-172.5 60q-91 0 -154.5 -36.5t-100.5 -102.5v-803h-197zM231 1306q0 93 59 161.5t150 68.5q56 0 140 -47t136 -47q41 0 71 32.5t30 79.5l108 -32 q0 -94 -59.5 -159t-149.5 -65q-71 0 -148 46.5t-128 46.5q-43 0 -72 -32.5t-29 -78.5z" />
<glyph unicode="&#xf2;" d="M97 529v22q0 240 130 395.5t353 155.5q225 0 355.5 -155t130.5 -396v-22q0 -242 -130 -396t-354 -154t-354.5 154.5t-130.5 395.5zM257 1539l3 6h230l175 -266h-158zM294 529q0 -172 72.5 -284t215.5 -112q141 0 214 112t73 284v22q0 170 -73.5 283t-215.5 113 q-141 0 -213.5 -113t-72.5 -283v-22z" />
<glyph unicode="&#xf3;" d="M97 529v22q0 240 130 395.5t353 155.5q225 0 355.5 -155t130.5 -396v-22q0 -242 -130 -396t-354 -154t-354.5 154.5t-130.5 395.5zM294 529q0 -172 72.5 -284t215.5 -112q141 0 214 112t73 284v22q0 170 -73.5 283t-215.5 113q-141 0 -213.5 -113t-72.5 -283v-22z M492 1275l185 266h230l2 -6l-269 -260h-148z" />
<glyph unicode="&#xf4;" d="M97 529v22q0 240 130 395.5t353 155.5q225 0 355.5 -155t130.5 -396v-22q0 -242 -130 -396t-354 -154t-354.5 154.5t-130.5 395.5zM276 1279v26l246 237h120l248 -238v-25h-161l-147 148l-146 -148h-160zM294 529q0 -172 72.5 -284t215.5 -112q141 0 214 112t73 284v22 q0 170 -73.5 283t-215.5 113q-141 0 -213.5 -113t-72.5 -283v-22z" />
<glyph unicode="&#xf5;" d="M97 529v22q0 240 130 395.5t353 155.5q225 0 355.5 -155t130.5 -396v-22q0 -242 -130 -396t-354 -154t-354.5 154.5t-130.5 395.5zM235 1306q0 93 59 161.5t150 68.5q56 0 140 -47t136 -47q41 0 71 32.5t30 79.5l108 -32q0 -94 -59.5 -159t-149.5 -65q-71 0 -148 46.5 t-128 46.5q-43 0 -72 -32.5t-29 -78.5zM294 529q0 -172 72.5 -284t215.5 -112q141 0 214 112t73 284v22q0 170 -73.5 283t-215.5 113q-141 0 -213.5 -113t-72.5 -283v-22z" />
<glyph unicode="&#xf6;" d="M97 529v22q0 240 130 395.5t353 155.5q225 0 355.5 -155t130.5 -396v-22q0 -242 -130 -396t-354 -154t-354.5 154.5t-130.5 395.5zM238 1283v200h219v-200h-219zM294 529q0 -172 72.5 -284t215.5 -112q141 0 214 112t73 284v22q0 170 -73.5 283t-215.5 113 q-141 0 -213.5 -113t-72.5 -283v-22zM708 1283v200h219v-200h-219z" />
<glyph unicode="&#xf7;" horiz-adv-x="1170" d="M71 597v188h998v-188h-998zM472 180v203h198v-203h-198zM472 999v203h198v-203h-198z" />
<glyph unicode="&#xf8;" d="M97 529v22q0 240 130 395.5t353 155.5q56 0 107.5 -11t97.5 -31l74 149h129l-104 -211q88 -74 135 -190t47 -257v-22q0 -242 -130 -396t-354 -154q-51 0 -97 8.5t-88 24.5l-72 -147h-129l100 204q-96 71 -147.5 191t-51.5 269zM294 529q0 -91 20 -166.5t61 -123.5h6 l332 674q-29 16 -62.5 25t-70.5 9q-141 0 -213.5 -113t-72.5 -283v-22zM469 156q24 -12 52 -17.5t61 -5.5q141 0 214 112t73 284v22q0 80 -17.5 150.5t-49.5 117.5h-6z" />
<glyph unicode="&#xf9;" d="M139 444v638h197v-640q0 -173 51 -238t159 -65q105 0 173.5 42.5t103.5 120.5v780h197v-1082h-177l-13 160q-51 -87 -131 -134t-185 -47q-177 0 -276 113t-99 352zM255 1518l3 6h230l175 -266h-158z" />
<glyph unicode="&#xfa;" d="M139 444v638h197v-640q0 -173 51 -238t159 -65q105 0 173.5 42.5t103.5 120.5v780h197v-1082h-177l-13 160q-51 -87 -131 -134t-185 -47q-177 0 -276 113t-99 352zM490 1254l185 266h230l2 -6l-269 -260h-148z" />
<glyph unicode="&#xfb;" d="M139 444v638h197v-640q0 -173 51 -238t159 -65q105 0 173.5 42.5t103.5 120.5v780h197v-1082h-177l-13 160q-51 -87 -131 -134t-185 -47q-177 0 -276 113t-99 352zM274 1258v26l246 237h120l248 -238v-25h-161l-147 148l-146 -148h-160z" />
<glyph unicode="&#xfc;" d="M139 444v638h197v-640q0 -173 51 -238t159 -65q105 0 173.5 42.5t103.5 120.5v780h197v-1082h-177l-13 160q-51 -87 -131 -134t-185 -47q-177 0 -276 113t-99 352zM236 1262v200h219v-200h-219zM706 1262v200h219v-200h-219z" />
<glyph unicode="&#xfd;" horiz-adv-x="1030" d="M26 1082h220l228 -681l35 -136h6l266 817h219l-455 -1248q-41 -109 -117.5 -190t-206.5 -81q-24 0 -61 5.5t-57 10.5l20 155q-6 1 35.5 -2t52.5 -3q63 0 103 56t67 124l47 113zM424 1254l185 266h230l2 -6l-269 -260h-148z" />
<glyph unicode="&#xfe;" horiz-adv-x="1186" d="M153 -416v1976h197v-598q53 68 128 104t173 36q201 0 312.5 -159.5t111.5 -421.5v-21q0 -234 -112 -377.5t-309 -143.5q-100 0 -175.5 33.5t-128.5 100.5v-529h-197zM350 275q37 -67 97 -104.5t147 -37.5q140 0 212 102.5t72 264.5v21q0 184 -72.5 302.5t-213.5 118.5 q-85 0 -145 -38.5t-97 -105.5v-523z" />
<glyph unicode="&#xff;" horiz-adv-x="1030" d="M26 1082h220l228 -681l35 -136h6l266 817h219l-455 -1248q-41 -109 -117.5 -190t-206.5 -81q-24 0 -61 5.5t-57 10.5l20 155q-6 1 35.5 -2t52.5 -3q63 0 103 56t67 124l47 113zM170 1262v200h219v-200h-219zM640 1262v200h219v-200h-219z" />
<glyph unicode="&#x152;" horiz-adv-x="1960" d="M104 576v304q0 265 154.5 431t403.5 166q69 0 140.5 -6t150.5 -15h838v-155h-689v-471h598v-155h-598v-521h700v-154h-849q-92 -10 -157 -15.5t-132 -5.5q-249 0 -404.5 166t-155.5 431zM301 576q0 -214 97 -328t266 -114q61 0 122 4.5t119 13.5v1151q-61 8 -122 13.5 t-121 5.5q-169 0 -265 -113.5t-96 -326.5v-306z" />
<glyph unicode="&#x153;" horiz-adv-x="1854" d="M97 529v22q0 240 130 395.5t353 155.5q128 0 228 -54t164 -150q64 96 160 150t208 54q217 0 325.5 -135t108.5 -359v-104h-692l-3 -5q0 -163 72 -264.5t220 -101.5q100 0 175.5 28.5t129.5 78.5l77 -128q-58 -56 -153 -94.5t-229 -38.5q-135 0 -237 51.5t-165 146.5 q-64 -94 -162.5 -146t-224.5 -52q-224 0 -354.5 154.5t-130.5 395.5zM294 529q0 -172 72.5 -284t215.5 -112q141 0 214 112t73 284v22q0 170 -73.5 283t-215.5 113q-141 0 -213.5 -113t-72.5 -283v-22zM1087 664l2 -5h488v16q0 118 -58 195t-179 77q-103 0 -170.5 -79.5 t-82.5 -203.5z" />
<glyph unicode="&#x178;" horiz-adv-x="1295" d="M40 1456h225l380 -740l380 740h225l-511 -944v-512h-196v527zM302 1604v200h219v-200h-219zM772 1604v200h219v-200h-219z" />
<glyph unicode="&#x2c6;" horiz-adv-x="979" d="M171 1252v26l246 237h120l248 -238v-25h-161l-147 148l-146 -148h-160z" />
<glyph unicode="&#x2dc;" horiz-adv-x="979" d="M135 1275q0 93 59 161.5t150 68.5q56 0 140 -47t136 -47q41 0 71 32.5t30 79.5l108 -32q0 -94 -59.5 -159t-149.5 -65q-71 0 -148 46.5t-128 46.5q-43 0 -72 -32.5t-29 -78.5z" />
<glyph unicode="&#x2000;" horiz-adv-x="951" />
<glyph unicode="&#x2001;" horiz-adv-x="1903" />
<glyph unicode="&#x2002;" horiz-adv-x="951" />
<glyph unicode="&#x2003;" horiz-adv-x="1903" />
<glyph unicode="&#x2004;" horiz-adv-x="634" />
<glyph unicode="&#x2005;" horiz-adv-x="475" />
<glyph unicode="&#x2006;" horiz-adv-x="317" />
<glyph unicode="&#x2007;" horiz-adv-x="317" />
<glyph unicode="&#x2008;" horiz-adv-x="237" />
<glyph unicode="&#x2009;" horiz-adv-x="380" />
<glyph unicode="&#x200a;" horiz-adv-x="105" />
<glyph unicode="&#x2010;" horiz-adv-x="923" d="M167 538v154h590v-154h-590z" />
<glyph unicode="&#x2011;" horiz-adv-x="923" d="M167 538v154h590v-154h-590z" />
<glyph unicode="&#x2012;" horiz-adv-x="923" d="M167 538v154h590v-154h-590z" />
<glyph unicode="&#x2013;" horiz-adv-x="1416" d="M167 648v155h1086v-155h-1086z" />
<glyph unicode="&#x2014;" horiz-adv-x="1660" d="M139 648v155h1336v-155h-1336z" />
<glyph unicode="&#x2018;" horiz-adv-x="524" d="M145 917v184l101 355h97l-1 -361v-178h-197z" />
<glyph unicode="&#x2019;" horiz-adv-x="516" d="M160 917l1 343v196h197v-193l-101 -346h-97z" />
<glyph unicode="&#x201a;" horiz-adv-x="540" d="M168 -255l1 263v241h197v-223l-101 -281h-97z" />
<glyph unicode="&#x201c;" horiz-adv-x="788" d="M123 917v184l101 355h97l-1 -361v-178h-197zM451 917v184l101 355h97l-1 -361v-178h-197z" />
<glyph unicode="&#x201d;" horiz-adv-x="769" d="M125 917l1 343v196h197v-193l-101 -346h-97zM461 917l1 343v196h197v-193l-101 -346h-97z" />
<glyph unicode="&#x201e;" horiz-adv-x="767" d="M138 -239l1 325v194h197v-184l-101 -335h-97zM446 -239l1 333v186h197v-184l-101 -335h-97z" />
<glyph unicode="&#x2022;" horiz-adv-x="695" d="M137 733v60q0 88 56 144t150 56q95 0 151.5 -56t56.5 -144v-60q0 -89 -56 -143.5t-151 -54.5t-151 55t-56 143z" />
<glyph unicode="&#x2026;" horiz-adv-x="1380" d="M161 0v202h197v-202h-197zM604 0v202h197v-202h-197zM1024 0v202h197v-202h-197z" />
<glyph unicode="&#x202f;" horiz-adv-x="380" />
<glyph unicode="&#x2039;" horiz-adv-x="615" d="M108 541v19l295 389h148l-255 -399l255 -398h-148z" />
<glyph unicode="&#x203a;" horiz-adv-x="615" d="M94 170l231 380l-231 380h148l278 -357h5l1 -9l5 -5l-2 -9l2 -9l-5 -6l-1 -7h-4l-279 -358h-148z" />
<glyph unicode="&#x205f;" horiz-adv-x="475" />
<glyph unicode="&#x20ac;" horiz-adv-x="1088" d="M79 512v124h146v166h-146v125h146v15q0 244 141.5 389.5t372.5 145.5q59 0 117.5 -8t124.5 -23l-19 -159q-54 16 -110.5 25.5t-112.5 9.5q-146 0 -231.5 -103t-85.5 -275v-17h492v-125h-492v-166h492v-124h-485l-2 -5q-4 -169 81.5 -271.5t232.5 -102.5q57 0 113 8.5 t108 25.5l19 -157q-56 -15 -117.5 -23t-122.5 -8q-231 0 -373.5 144.5t-142.5 388.5h-146z" />
<glyph unicode="&#x2122;" horiz-adv-x="1284" d="M103 1374v82h384v-82h-145v-455h-94v455h-145zM565 919v537h116l161 -390h6l162 390h110v-537h-93v343l-6 2l-150 -345h-51l-156 359l-6 -2v-357h-93z" />
<glyph unicode="&#x25fc;" horiz-adv-x="1080" d="M0 0v1080h1080v-1080h-1080z" />
<glyph unicode="&#xfb02;" horiz-adv-x="1190" d="M56 936v146h169v137q0 173 90.5 267.5t252.5 94.5q34 0 68.5 -5.5t76.5 -15.5l-24 -150q-18 4 -43.5 7t-53.5 3q-86 0 -128 -51.5t-42 -149.5v-137h196v-146h-196v-936h-197v936h-169zM833 0v1560h197v-1560h-197z" />
<glyph unicode="&#xfb03;" horiz-adv-x="1814" d="M56 936v146h169v137q0 173 90.5 267.5t252.5 94.5q34 0 68.5 -5.5t76.5 -15.5l-24 -150q-18 4 -43.5 7t-53.5 3q-86 0 -128 -51.5t-42 -149.5v-137h196v-146h-196v-936h-197v936h-169zM702 936v146h170v117q0 182 106.5 282t295.5 100q67 0 132 -15.5t153 -45.5l-34 -160 q-53 21 -113 36t-123 15q-117 0 -168.5 -52t-51.5 -160v-117h215v-146h-215v-936h-197v936h-170zM1457 0v1082h198v-1082h-198z" />
<glyph unicode="&#xfb04;" horiz-adv-x="1864" d="M56 936v146h169v137q0 173 90.5 267.5t252.5 94.5q34 0 68.5 -5.5t76.5 -15.5l-24 -150q-18 4 -43.5 7t-53.5 3q-86 0 -128 -51.5t-42 -149.5v-137h196v-146h-196v-936h-197v936h-169zM730 936v146h169v137q0 173 90.5 267.5t252.5 94.5q34 0 68.5 -5.5t76.5 -15.5 l-24 -150q-18 4 -43.5 7t-53.5 3q-86 0 -128 -51.5t-42 -149.5v-137h196v-146h-196v-936h-197v936h-169zM1507 0v1560h197v-1560h-197z" />
<hkern u1="&#x22;" u2="w" k="-11" />
<hkern u1="&#x27;" u2="w" k="-11" />
<hkern u1="&#x28;" u2="&#x178;" k="-22" />
<hkern u1="&#x28;" u2="&#xdd;" k="-22" />
<hkern u1="&#x28;" u2="Y" k="-22" />
<hkern u1="&#x28;" u2="W" k="-18" />
<hkern u1="&#x28;" u2="V" k="-20" />
<hkern u1="A" u2="w" k="33" />
<hkern u1="A" u2="t" k="17" />
<hkern u1="A" u2="&#x3f;" k="61" />
<hkern u1="C" u2="&#x7d;" k="17" />
<hkern u1="C" u2="]" k="12" />
<hkern u1="C" u2="&#x29;" k="26" />
<hkern u1="D" u2="&#xc6;" k="33" />
<hkern u1="E" u2="w" k="22" />
<hkern u1="E" u2="f" k="18" />
<hkern u1="F" u2="&#x2026;" k="234" />
<hkern u1="F" u2="&#x201e;" k="234" />
<hkern u1="F" u2="&#x201a;" k="234" />
<hkern u1="F" u2="&#x153;" k="21" />
<hkern u1="F" u2="&#xff;" k="24" />
<hkern u1="F" u2="&#xfd;" k="24" />
<hkern u1="F" u2="&#xfc;" k="22" />
<hkern u1="F" u2="&#xfb;" k="22" />
<hkern u1="F" u2="&#xfa;" k="22" />
<hkern u1="F" u2="&#xf9;" k="22" />
<hkern u1="F" u2="&#xf6;" k="21" />
<hkern u1="F" u2="&#xf5;" k="21" />
<hkern u1="F" u2="&#xf4;" k="21" />
<hkern u1="F" u2="&#xf3;" k="21" />
<hkern u1="F" u2="&#xf2;" k="21" />
<hkern u1="F" u2="&#xeb;" k="21" />
<hkern u1="F" u2="&#xea;" k="21" />
<hkern u1="F" u2="&#xe9;" k="21" />
<hkern u1="F" u2="&#xe8;" k="21" />
<hkern u1="F" u2="&#xe7;" k="21" />
<hkern u1="F" u2="&#xe5;" k="34" />
<hkern u1="F" u2="&#xe4;" k="34" />
<hkern u1="F" u2="&#xe3;" k="34" />
<hkern u1="F" u2="&#xe2;" k="34" />
<hkern u1="F" u2="&#xe1;" k="34" />
<hkern u1="F" u2="&#xe0;" k="34" />
<hkern u1="F" u2="&#xc5;" k="59" />
<hkern u1="F" u2="&#xc4;" k="59" />
<hkern u1="F" u2="&#xc3;" k="59" />
<hkern u1="F" u2="&#xc2;" k="59" />
<hkern u1="F" u2="&#xc1;" k="59" />
<hkern u1="F" u2="&#xc0;" k="59" />
<hkern u1="F" u2="y" k="24" />
<hkern u1="F" u2="v" k="24" />
<hkern u1="F" u2="u" k="22" />
<hkern u1="F" u2="q" k="21" />
<hkern u1="F" u2="o" k="21" />
<hkern u1="F" u2="g" k="21" />
<hkern u1="F" u2="e" k="21" />
<hkern u1="F" u2="d" k="21" />
<hkern u1="F" u2="c" k="21" />
<hkern u1="F" u2="a" k="34" />
<hkern u1="F" u2="A" k="59" />
<hkern u1="F" u2="&#x3a;" k="234" />
<hkern u1="F" u2="&#x2e;" k="234" />
<hkern u1="F" u2="&#x2c;" k="234" />
<hkern u1="F" u2="r" k="26" />
<hkern u1="K" u2="w" k="63" />
<hkern u1="L" u2="w" k="92" />
<hkern u1="O" u2="&#xc6;" k="33" />
<hkern u1="P" u2="&#xc6;" k="97" />
<hkern u1="P" u2="t" k="-14" />
<hkern u1="Q" u2="&#x178;" k="35" />
<hkern u1="Q" u2="&#xdd;" k="35" />
<hkern u1="Q" u2="Y" k="35" />
<hkern u1="Q" u2="W" k="20" />
<hkern u1="Q" u2="V" k="28" />
<hkern u1="Q" u2="T" k="43" />
<hkern u1="R" u2="&#x178;" k="48" />
<hkern u1="R" u2="&#xdd;" k="48" />
<hkern u1="R" u2="Y" k="48" />
<hkern u1="R" u2="V" k="19" />
<hkern u1="R" u2="T" k="80" />
<hkern u1="T" u2="&#xf8;" k="95" />
<hkern u1="T" u2="&#xe6;" k="114" />
<hkern u1="T" u2="&#xc6;" k="179" />
<hkern u1="T" u2="&#xbb;" k="216" />
<hkern u1="T" u2="&#xab;" k="328" />
<hkern u1="T" u2="w" k="57" />
<hkern u1="T" u2="r" k="75" />
<hkern u1="V" u2="&#x7d;" k="-19" />
<hkern u1="V" u2="r" k="30" />
<hkern u1="V" u2="]" k="-17" />
<hkern u1="V" u2="&#x29;" k="-20" />
<hkern u1="W" u2="&#x7d;" k="-14" />
<hkern u1="W" u2="r" k="21" />
<hkern u1="W" u2="]" k="-12" />
<hkern u1="W" u2="&#x29;" k="-15" />
<hkern u1="Y" u2="&#x2022;" k="45" />
<hkern u1="Y" u2="&#xf8;" k="64" />
<hkern u1="Y" u2="&#xe6;" k="63" />
<hkern u1="Y" u2="&#xc6;" k="96" />
<hkern u1="Y" u2="&#xbb;" k="51" />
<hkern u1="Y" u2="&#xab;" k="82" />
<hkern u1="Y" u2="&#x7d;" k="-19" />
<hkern u1="Y" u2="t" k="22" />
<hkern u1="Y" u2="r" k="40" />
<hkern u1="Y" u2="f" k="22" />
<hkern u1="Y" u2="]" k="-18" />
<hkern u1="Y" u2="&#x2a;" k="49" />
<hkern u1="Y" u2="&#x29;" k="-20" />
<hkern u1="Y" u2="&#x26;" k="30" />
<hkern u1="Z" u2="w" k="27" />
<hkern u1="[" u2="&#xdc;" k="18" />
<hkern u1="[" u2="&#xdb;" k="18" />
<hkern u1="[" u2="&#xda;" k="18" />
<hkern u1="[" u2="&#xd9;" k="18" />
<hkern u1="[" u2="U" k="18" />
<hkern u1="[" u2="J" k="18" />
<hkern u1="f" u2="&#x201d;" k="-16" />
<hkern u1="f" u2="&#x201c;" k="-16" />
<hkern u1="f" u2="&#x2019;" k="-16" />
<hkern u1="f" u2="&#x2018;" k="-16" />
<hkern u1="f" u2="&#x153;" k="24" />
<hkern u1="f" u2="&#xeb;" k="24" />
<hkern u1="f" u2="&#xea;" k="24" />
<hkern u1="f" u2="&#xe9;" k="24" />
<hkern u1="f" u2="&#xe8;" k="24" />
<hkern u1="f" u2="&#xe7;" k="24" />
<hkern u1="f" u2="q" k="24" />
<hkern u1="f" u2="g" k="24" />
<hkern u1="f" u2="e" k="24" />
<hkern u1="f" u2="d" k="24" />
<hkern u1="f" u2="c" k="24" />
<hkern u1="f" u2="&#x27;" k="-16" />
<hkern u1="f" u2="&#x22;" k="-16" />
<hkern u1="f" u2="&#x7d;" k="-19" />
<hkern u1="f" u2="]" k="-18" />
<hkern u1="f" u2="&#x29;" k="-20" />
<hkern u1="k" u2="&#x153;" k="20" />
<hkern u1="k" u2="&#xeb;" k="20" />
<hkern u1="k" u2="&#xea;" k="20" />
<hkern u1="k" u2="&#xe9;" k="20" />
<hkern u1="k" u2="&#xe8;" k="20" />
<hkern u1="k" u2="&#xe7;" k="20" />
<hkern u1="k" u2="q" k="20" />
<hkern u1="k" u2="g" k="20" />
<hkern u1="k" u2="e" k="20" />
<hkern u1="k" u2="d" k="20" />
<hkern u1="k" u2="c" k="20" />
<hkern u1="r" u2="w" k="-17" />
<hkern u1="r" u2="t" k="-17" />
<hkern u1="r" u2="f" k="-15" />
<hkern u1="v" u2="f" k="-13" />
<hkern u1="w" u2="&#x2026;" k="124" />
<hkern u1="w" u2="&#x201e;" k="124" />
<hkern u1="w" u2="&#x201a;" k="124" />
<hkern u1="w" u2="&#x3a;" k="124" />
<hkern u1="w" u2="&#x2e;" k="124" />
<hkern u1="w" u2="&#x2c;" k="124" />
<hkern u1="y" u2="f" k="-13" />
<hkern u1="&#x7b;" u2="&#xdc;" k="20" />
<hkern u1="&#x7b;" u2="&#xdb;" k="20" />
<hkern u1="&#x7b;" u2="&#xda;" k="20" />
<hkern u1="&#x7b;" u2="&#xd9;" k="20" />
<hkern u1="&#x7b;" u2="U" k="20" />
<hkern u1="&#x7b;" u2="J" k="20" />
<hkern u1="&#xc0;" u2="w" k="33" />
<hkern u1="&#xc0;" u2="t" k="17" />
<hkern u1="&#xc0;" u2="&#x3f;" k="61" />
<hkern u1="&#xc1;" u2="w" k="33" />
<hkern u1="&#xc1;" u2="t" k="17" />
<hkern u1="&#xc1;" u2="&#x3f;" k="61" />
<hkern u1="&#xc2;" u2="w" k="33" />
<hkern u1="&#xc2;" u2="t" k="17" />
<hkern u1="&#xc2;" u2="&#x3f;" k="61" />
<hkern u1="&#xc3;" u2="w" k="33" />
<hkern u1="&#xc3;" u2="t" k="17" />
<hkern u1="&#xc3;" u2="&#x3f;" k="61" />
<hkern u1="&#xc4;" u2="w" k="33" />
<hkern u1="&#xc4;" u2="t" k="17" />
<hkern u1="&#xc4;" u2="&#x3f;" k="61" />
<hkern u1="&#xc5;" u2="w" k="33" />
<hkern u1="&#xc5;" u2="t" k="17" />
<hkern u1="&#xc5;" u2="&#x3f;" k="61" />
<hkern u1="&#xc7;" u2="&#x7d;" k="17" />
<hkern u1="&#xc7;" u2="]" k="12" />
<hkern u1="&#xc7;" u2="&#x29;" k="26" />
<hkern u1="&#xc8;" u2="w" k="22" />
<hkern u1="&#xc8;" u2="f" k="18" />
<hkern u1="&#xc9;" u2="w" k="22" />
<hkern u1="&#xc9;" u2="f" k="18" />
<hkern u1="&#xca;" u2="w" k="22" />
<hkern u1="&#xca;" u2="f" k="18" />
<hkern u1="&#xcb;" u2="w" k="22" />
<hkern u1="&#xcb;" u2="f" k="18" />
<hkern u1="&#xd0;" u2="&#xc6;" k="33" />
<hkern u1="&#xd2;" u2="&#xc6;" k="33" />
<hkern u1="&#xd3;" u2="&#xc6;" k="33" />
<hkern u1="&#xd4;" u2="&#xc6;" k="33" />
<hkern u1="&#xd5;" u2="&#xc6;" k="33" />
<hkern u1="&#xd6;" u2="&#xc6;" k="33" />
<hkern u1="&#xdd;" u2="&#x2022;" k="45" />
<hkern u1="&#xdd;" u2="&#xf8;" k="64" />
<hkern u1="&#xdd;" u2="&#xe6;" k="63" />
<hkern u1="&#xdd;" u2="&#xc6;" k="96" />
<hkern u1="&#xdd;" u2="&#xbb;" k="51" />
<hkern u1="&#xdd;" u2="&#xab;" k="82" />
<hkern u1="&#xdd;" u2="&#x7d;" k="-19" />
<hkern u1="&#xdd;" u2="t" k="22" />
<hkern u1="&#xdd;" u2="r" k="40" />
<hkern u1="&#xdd;" u2="f" k="22" />
<hkern u1="&#xdd;" u2="]" k="-18" />
<hkern u1="&#xdd;" u2="&#x2a;" k="49" />
<hkern u1="&#xdd;" u2="&#x29;" k="-20" />
<hkern u1="&#xdd;" u2="&#x26;" k="30" />
<hkern u1="&#xfd;" u2="f" k="-13" />
<hkern u1="&#xff;" u2="f" k="-13" />
<hkern u1="&#x178;" u2="&#x2022;" k="45" />
<hkern u1="&#x178;" u2="&#xf8;" k="64" />
<hkern u1="&#x178;" u2="&#xe6;" k="63" />
<hkern u1="&#x178;" u2="&#xc6;" k="96" />
<hkern u1="&#x178;" u2="&#xbb;" k="51" />
<hkern u1="&#x178;" u2="&#xab;" k="82" />
<hkern u1="&#x178;" u2="&#x7d;" k="-19" />
<hkern u1="&#x178;" u2="t" k="22" />
<hkern u1="&#x178;" u2="r" k="40" />
<hkern u1="&#x178;" u2="f" k="22" />
<hkern u1="&#x178;" u2="]" k="-18" />
<hkern u1="&#x178;" u2="&#x2a;" k="49" />
<hkern u1="&#x178;" u2="&#x29;" k="-20" />
<hkern u1="&#x178;" u2="&#x26;" k="30" />
<hkern u1="&#x2018;" u2="w" k="-11" />
<hkern u1="&#x2019;" u2="w" k="-11" />
<hkern u1="&#x201c;" u2="w" k="-11" />
<hkern u1="&#x201d;" u2="w" k="-11" />
<hkern g1="A,Agrave,Aacute,Acircumflex,Atilde,Adieresis,Aring" 	g2="v,y,yacute,ydieresis" 	k="50" />
<hkern g1="A,Agrave,Aacute,Acircumflex,Atilde,Adieresis,Aring" 	g2="C,G,O,Q,Ccedilla,Ograve,Oacute,Ocircumflex,Otilde,Odieresis,Oslash,OE" 	k="11" />
<hkern g1="A,Agrave,Aacute,Acircumflex,Atilde,Adieresis,Aring" 	g2="U,Ugrave,Uacute,Ucircumflex,Udieresis" 	k="17" />
<hkern g1="A,Agrave,Aacute,Acircumflex,Atilde,Adieresis,Aring" 	g2="quotedbl,quotesingle,quoteleft,quoteright,quotedblleft,quotedblright" 	k="79" />
<hkern g1="A,Agrave,Aacute,Acircumflex,Atilde,Adieresis,Aring" 	g2="o,ograve,oacute,ocircumflex,otilde,odieresis" 	k="12" />
<hkern g1="A,Agrave,Aacute,Acircumflex,Atilde,Adieresis,Aring" 	g2="W" 	k="69" />
<hkern g1="A,Agrave,Aacute,Acircumflex,Atilde,Adieresis,Aring" 	g2="T" 	k="129" />
<hkern g1="A,Agrave,Aacute,Acircumflex,Atilde,Adieresis,Aring" 	g2="u,ugrave,uacute,ucircumflex,udieresis" 	k="11" />
<hkern g1="A,Agrave,Aacute,Acircumflex,Atilde,Adieresis,Aring" 	g2="z" 	k="-12" />
<hkern g1="A,Agrave,Aacute,Acircumflex,Atilde,Adieresis,Aring" 	g2="V" 	k="87" />
<hkern g1="A,Agrave,Aacute,Acircumflex,Atilde,Adieresis,Aring" 	g2="Y,Yacute,Ydieresis" 	k="94" />
<hkern g1="B" 	g2="T" 	k="27" />
<hkern g1="B" 	g2="V" 	k="24" />
<hkern g1="B" 	g2="Y,Yacute,Ydieresis" 	k="55" />
<hkern g1="H,I,M,N,Igrave,Iacute,Icircumflex,Idieresis,Ntilde" 	g2="T" 	k="29" />
<hkern g1="H,I,M,N,Igrave,Iacute,Icircumflex,Idieresis,Ntilde" 	g2="Y,Yacute,Ydieresis" 	k="28" />
<hkern g1="H,I,M,N,Igrave,Iacute,Icircumflex,Idieresis,Ntilde" 	g2="A,Agrave,Aacute,Acircumflex,Atilde,Adieresis,Aring" 	k="-18" />
<hkern g1="H,I,M,N,Igrave,Iacute,Icircumflex,Idieresis,Ntilde" 	g2="X" 	k="-17" />
<hkern g1="D,O,Eth,Ograve,Oacute,Ocircumflex,Otilde,Odieresis" 	g2="T" 	k="27" />
<hkern g1="D,O,Eth,Ograve,Oacute,Ocircumflex,Otilde,Odieresis" 	g2="V" 	k="22" />
<hkern g1="D,O,Eth,Ograve,Oacute,Ocircumflex,Otilde,Odieresis" 	g2="Y,Yacute,Ydieresis" 	k="43" />
<hkern g1="D,O,Eth,Ograve,Oacute,Ocircumflex,Otilde,Odieresis" 	g2="A,Agrave,Aacute,Acircumflex,Atilde,Adieresis,Aring" 	k="21" />
<hkern g1="D,O,Eth,Ograve,Oacute,Ocircumflex,Otilde,Odieresis" 	g2="X" 	k="22" />
<hkern g1="D,O,Eth,Ograve,Oacute,Ocircumflex,Otilde,Odieresis" 	g2="comma,period,colon,quotesinglbase,quotedblbase,ellipsis" 	k="102" />
<hkern g1="D,O,Eth,Ograve,Oacute,Ocircumflex,Otilde,Odieresis" 	g2="Z" 	k="23" />
<hkern g1="C,Ccedilla" 	g2="T" 	k="29" />
<hkern g1="E,Egrave,Eacute,Ecircumflex,Edieresis" 	g2="v,y,yacute,ydieresis" 	k="26" />
<hkern g1="E,Egrave,Eacute,Ecircumflex,Edieresis" 	g2="o,ograve,oacute,ocircumflex,otilde,odieresis" 	k="19" />
<hkern g1="E,Egrave,Eacute,Ecircumflex,Edieresis" 	g2="u,ugrave,uacute,ucircumflex,udieresis" 	k="17" />
<hkern g1="E,Egrave,Eacute,Ecircumflex,Edieresis" 	g2="c,d,e,g,q,ccedilla,egrave,eacute,ecircumflex,edieresis,oe" 	k="19" />
<hkern g1="T" 	g2="v,y,yacute,ydieresis" 	k="72" />
<hkern g1="T" 	g2="C,G,O,Q,Ccedilla,Ograve,Oacute,Ocircumflex,Otilde,Odieresis,Oslash,OE" 	k="28" />
<hkern g1="T" 	g2="o,ograve,oacute,ocircumflex,otilde,odieresis" 	k="99" />
<hkern g1="T" 	g2="W" 	k="-15" />
<hkern g1="T" 	g2="T" 	k="-16" />
<hkern g1="T" 	g2="u,ugrave,uacute,ucircumflex,udieresis" 	k="95" />
<hkern g1="T" 	g2="z" 	k="60" />
<hkern g1="T" 	g2="V" 	k="-16" />
<hkern g1="T" 	g2="Y,Yacute,Ydieresis" 	k="-16" />
<hkern g1="T" 	g2="A,Agrave,Aacute,Acircumflex,Atilde,Adieresis,Aring" 	k="79" />
<hkern g1="T" 	g2="comma,period,colon,quotesinglbase,quotedblbase,ellipsis" 	k="218" />
<hkern g1="T" 	g2="c,d,e,g,q,ccedilla,egrave,eacute,ecircumflex,edieresis,oe" 	k="99" />
<hkern g1="T" 	g2="x" 	k="77" />
<hkern g1="T" 	g2="hyphen,uni00AD,endash,emdash" 	k="232" />
<hkern g1="T" 	g2="m,n,p,ntilde" 	k="109" />
<hkern g1="T" 	g2="S" 	k="16" />
<hkern g1="T" 	g2="a,agrave,aacute,acircumflex,atilde,adieresis,aring" 	k="113" />
<hkern g1="T" 	g2="s" 	k="116" />
<hkern g1="K" 	g2="v,y,yacute,ydieresis" 	k="40" />
<hkern g1="K" 	g2="C,G,O,Q,Ccedilla,Ograve,Oacute,Ocircumflex,Otilde,Odieresis,Oslash,OE" 	k="31" />
<hkern g1="K" 	g2="o,ograve,oacute,ocircumflex,otilde,odieresis" 	k="27" />
<hkern g1="K" 	g2="u,ugrave,uacute,ucircumflex,udieresis" 	k="23" />
<hkern g1="K" 	g2="c,d,e,g,q,ccedilla,egrave,eacute,ecircumflex,edieresis,oe" 	k="26" />
<hkern g1="K" 	g2="hyphen,uni00AD,endash,emdash" 	k="64" />
<hkern g1="K" 	g2="m,n,p,ntilde" 	k="23" />
<hkern g1="L" 	g2="v,y,yacute,ydieresis" 	k="133" />
<hkern g1="L" 	g2="C,G,O,Q,Ccedilla,Ograve,Oacute,Ocircumflex,Otilde,Odieresis,Oslash,OE" 	k="65" />
<hkern g1="L" 	g2="U,Ugrave,Uacute,Ucircumflex,Udieresis" 	k="54" />
<hkern g1="L" 	g2="quotedbl,quotesingle,quoteleft,quoteright,quotedblleft,quotedblright" 	k="138" />
<hkern g1="L" 	g2="W" 	k="143" />
<hkern g1="L" 	g2="T" 	k="275" />
<hkern g1="L" 	g2="u,ugrave,uacute,ucircumflex,udieresis" 	k="44" />
<hkern g1="L" 	g2="V" 	k="175" />
<hkern g1="L" 	g2="Y,Yacute,Ydieresis" 	k="239" />
<hkern g1="L" 	g2="A,Agrave,Aacute,Acircumflex,Atilde,Adieresis,Aring" 	k="-19" />
<hkern g1="P" 	g2="v,y,yacute,ydieresis" 	k="-15" />
<hkern g1="P" 	g2="o,ograve,oacute,ocircumflex,otilde,odieresis" 	k="13" />
<hkern g1="P" 	g2="A,Agrave,Aacute,Acircumflex,Atilde,Adieresis,Aring" 	k="138" />
<hkern g1="P" 	g2="X" 	k="31" />
<hkern g1="P" 	g2="comma,period,colon,quotesinglbase,quotedblbase,ellipsis" 	k="324" />
<hkern g1="P" 	g2="Z" 	k="26" />
<hkern g1="P" 	g2="c,d,e,g,q,ccedilla,egrave,eacute,ecircumflex,edieresis,oe" 	k="13" />
<hkern g1="P" 	g2="a,agrave,aacute,acircumflex,atilde,adieresis,aring" 	k="11" />
<hkern g1="J,U,Ugrave,Uacute,Ucircumflex,Udieresis" 	g2="A,Agrave,Aacute,Acircumflex,Atilde,Adieresis,Aring" 	k="22" />
<hkern g1="V" 	g2="v,y,yacute,ydieresis" 	k="11" />
<hkern g1="V" 	g2="C,G,O,Q,Ccedilla,Ograve,Oacute,Ocircumflex,Otilde,Odieresis,Oslash,OE" 	k="13" />
<hkern g1="V" 	g2="o,ograve,oacute,ocircumflex,otilde,odieresis" 	k="46" />
<hkern g1="V" 	g2="u,ugrave,uacute,ucircumflex,udieresis" 	k="28" />
<hkern g1="V" 	g2="A,Agrave,Aacute,Acircumflex,Atilde,Adieresis,Aring" 	k="75" />
<hkern g1="V" 	g2="comma,period,colon,quotesinglbase,quotedblbase,ellipsis" 	k="225" />
<hkern g1="V" 	g2="c,d,e,g,q,ccedilla,egrave,eacute,ecircumflex,edieresis,oe" 	k="44" />
<hkern g1="V" 	g2="hyphen,uni00AD,endash,emdash" 	k="37" />
<hkern g1="V" 	g2="a,agrave,aacute,acircumflex,atilde,adieresis,aring" 	k="46" />
<hkern g1="X" 	g2="v,y,yacute,ydieresis" 	k="31" />
<hkern g1="X" 	g2="C,G,O,Q,Ccedilla,Ograve,Oacute,Ocircumflex,Otilde,Odieresis,Oslash,OE" 	k="25" />
<hkern g1="X" 	g2="o,ograve,oacute,ocircumflex,otilde,odieresis" 	k="21" />
<hkern g1="X" 	g2="u,ugrave,uacute,ucircumflex,udieresis" 	k="21" />
<hkern g1="X" 	g2="V" 	k="-14" />
<hkern g1="X" 	g2="c,d,e,g,q,ccedilla,egrave,eacute,ecircumflex,edieresis,oe" 	k="26" />
<hkern g1="X" 	g2="hyphen,uni00AD,endash,emdash" 	k="46" />
<hkern g1="Y,Yacute,Ydieresis" 	g2="v,y,yacute,ydieresis" 	k="20" />
<hkern g1="Y,Yacute,Ydieresis" 	g2="C,G,O,Q,Ccedilla,Ograve,Oacute,Ocircumflex,Otilde,Odieresis,Oslash,OE" 	k="29" />
<hkern g1="Y,Yacute,Ydieresis" 	g2="U,Ugrave,Uacute,Ucircumflex,Udieresis" 	k="96" />
<hkern g1="Y,Yacute,Ydieresis" 	g2="o,ograve,oacute,ocircumflex,otilde,odieresis" 	k="65" />
<hkern g1="Y,Yacute,Ydieresis" 	g2="W" 	k="-17" />
<hkern g1="Y,Yacute,Ydieresis" 	g2="T" 	k="-17" />
<hkern g1="Y,Yacute,Ydieresis" 	g2="u,ugrave,uacute,ucircumflex,udieresis" 	k="39" />
<hkern g1="Y,Yacute,Ydieresis" 	g2="z" 	k="30" />
<hkern g1="Y,Yacute,Ydieresis" 	g2="V" 	k="-18" />
<hkern g1="Y,Yacute,Ydieresis" 	g2="Y,Yacute,Ydieresis" 	k="-18" />
<hkern g1="Y,Yacute,Ydieresis" 	g2="A,Agrave,Aacute,Acircumflex,Atilde,Adieresis,Aring" 	k="82" />
<hkern g1="Y,Yacute,Ydieresis" 	g2="X" 	k="-13" />
<hkern g1="Y,Yacute,Ydieresis" 	g2="comma,period,colon,quotesinglbase,quotedblbase,ellipsis" 	k="211" />
<hkern g1="Y,Yacute,Ydieresis" 	g2="c,d,e,g,q,ccedilla,egrave,eacute,ecircumflex,edieresis,oe" 	k="65" />
<hkern g1="Y,Yacute,Ydieresis" 	g2="x" 	k="23" />
<hkern g1="Y,Yacute,Ydieresis" 	g2="hyphen,uni00AD,endash,emdash" 	k="52" />
<hkern g1="Y,Yacute,Ydieresis" 	g2="m,n,p,ntilde" 	k="40" />
<hkern g1="Y,Yacute,Ydieresis" 	g2="S" 	k="16" />
<hkern g1="Y,Yacute,Ydieresis" 	g2="a,agrave,aacute,acircumflex,atilde,adieresis,aring" 	k="73" />
<hkern g1="Y,Yacute,Ydieresis" 	g2="s" 	k="58" />
<hkern g1="Y,Yacute,Ydieresis" 	g2="J" 	k="96" />
<hkern g1="W" 	g2="o,ograve,oacute,ocircumflex,otilde,odieresis" 	k="31" />
<hkern g1="W" 	g2="T" 	k="-14" />
<hkern g1="W" 	g2="u,ugrave,uacute,ucircumflex,udieresis" 	k="19" />
<hkern g1="W" 	g2="A,Agrave,Aacute,Acircumflex,Atilde,Adieresis,Aring" 	k="43" />
<hkern g1="W" 	g2="comma,period,colon,quotesinglbase,quotedblbase,ellipsis" 	k="123" />
<hkern g1="W" 	g2="c,d,e,g,q,ccedilla,egrave,eacute,ecircumflex,edieresis,oe" 	k="31" />
<hkern g1="W" 	g2="hyphen,uni00AD,endash,emdash" 	k="60" />
<hkern g1="W" 	g2="a,agrave,aacute,acircumflex,atilde,adieresis,aring" 	k="33" />
<hkern g1="Z" 	g2="v,y,yacute,ydieresis" 	k="27" />
<hkern g1="Z" 	g2="C,G,O,Q,Ccedilla,Ograve,Oacute,Ocircumflex,Otilde,Odieresis,Oslash,OE" 	k="26" />
<hkern g1="Z" 	g2="o,ograve,oacute,ocircumflex,otilde,odieresis" 	k="21" />
<hkern g1="Z" 	g2="u,ugrave,uacute,ucircumflex,udieresis" 	k="19" />
<hkern g1="Z" 	g2="A,Agrave,Aacute,Acircumflex,Atilde,Adieresis,Aring" 	k="-13" />
<hkern g1="Z" 	g2="c,d,e,g,q,ccedilla,egrave,eacute,ecircumflex,edieresis,oe" 	k="21" />
<hkern g1="a,agrave,aacute,acircumflex,atilde,adieresis,aring" 	g2="v,y,yacute,ydieresis" 	k="15" />
<hkern g1="a,agrave,aacute,acircumflex,atilde,adieresis,aring" 	g2="quotedbl,quotesingle,quoteleft,quoteright,quotedblleft,quotedblright" 	k="67" />
<hkern g1="c,ccedilla" 	g2="quotedbl,quotesingle,quoteleft,quoteright,quotedblleft,quotedblright" 	k="11" />
<hkern g1="b,p,thorn" 	g2="v,y,yacute,ydieresis" 	k="11" />
<hkern g1="b,p,thorn" 	g2="quotedbl,quotesingle,quoteleft,quoteright,quotedblleft,quotedblright" 	k="29" />
<hkern g1="b,p,thorn" 	g2="z" 	k="15" />
<hkern g1="b,p,thorn" 	g2="x" 	k="15" />
<hkern g1="e,egrave,eacute,ecircumflex,edieresis" 	g2="v,y,yacute,ydieresis" 	k="13" />
<hkern g1="e,egrave,eacute,ecircumflex,edieresis" 	g2="quotedbl,quotesingle,quoteleft,quoteright,quotedblleft,quotedblright" 	k="14" />
<hkern g1="h,m,n,ntilde" 	g2="quotedbl,quotesingle,quoteleft,quoteright,quotedblleft,quotedblright" 	k="16" />
<hkern g1="o,ograve,oacute,ocircumflex,otilde,odieresis" 	g2="v,y,yacute,ydieresis" 	k="15" />
<hkern g1="o,ograve,oacute,ocircumflex,otilde,odieresis" 	g2="quotedbl,quotesingle,quoteleft,quoteright,quotedblleft,quotedblright" 	k="20" />
<hkern g1="o,ograve,oacute,ocircumflex,otilde,odieresis" 	g2="z" 	k="16" />
<hkern g1="o,ograve,oacute,ocircumflex,otilde,odieresis" 	g2="x" 	k="21" />
<hkern g1="v,y,yacute,ydieresis" 	g2="quotedbl,quotesingle,quoteleft,quoteright,quotedblleft,quotedblright" 	k="-15" />
<hkern g1="v,y,yacute,ydieresis" 	g2="o,ograve,oacute,ocircumflex,otilde,odieresis" 	k="15" />
<hkern g1="v,y,yacute,ydieresis" 	g2="comma,period,colon,quotesinglbase,quotedblbase,ellipsis" 	k="107" />
<hkern g1="v,y,yacute,ydieresis" 	g2="c,d,e,g,q,ccedilla,egrave,eacute,ecircumflex,edieresis,oe" 	k="13" />
<hkern g1="v,y,yacute,ydieresis" 	g2="a,agrave,aacute,acircumflex,atilde,adieresis,aring" 	k="15" />
<hkern g1="r" 	g2="v,y,yacute,ydieresis" 	k="-18" />
<hkern g1="r" 	g2="quotedbl,quotesingle,quoteleft,quoteright,quotedblleft,quotedblright" 	k="-16" />
<hkern g1="r" 	g2="o,ograve,oacute,ocircumflex,otilde,odieresis" 	k="20" />
<hkern g1="r" 	g2="comma,period,colon,quotesinglbase,quotedblbase,ellipsis" 	k="123" />
<hkern g1="r" 	g2="c,d,e,g,q,ccedilla,egrave,eacute,ecircumflex,edieresis,oe" 	k="19" />
<hkern g1="x" 	g2="o,ograve,oacute,ocircumflex,otilde,odieresis" 	k="20" />
<hkern g1="x" 	g2="c,d,e,g,q,ccedilla,egrave,eacute,ecircumflex,edieresis,oe" 	k="20" />
<hkern g1="z" 	g2="o,ograve,oacute,ocircumflex,otilde,odieresis" 	k="16" />
<hkern g1="z" 	g2="c,d,e,g,q,ccedilla,egrave,eacute,ecircumflex,edieresis,oe" 	k="16" />
<hkern g1="quotedbl,quotesingle,quoteleft,quoteright,quotedblleft,quotedblright" 	g2="quotedbl,quotesingle,quoteleft,quoteright,quotedblleft,quotedblright" 	k="107" />
<hkern g1="quotedbl,quotesingle,quoteleft,quoteright,quotedblleft,quotedblright" 	g2="o,ograve,oacute,ocircumflex,otilde,odieresis" 	k="61" />
<hkern g1="quotedbl,quotesingle,quoteleft,quoteright,quotedblleft,quotedblright" 	g2="A,Agrave,Aacute,Acircumflex,Atilde,Adieresis,Aring" 	k="106" />
<hkern g1="quotedbl,quotesingle,quoteleft,quoteright,quotedblleft,quotedblright" 	g2="c,d,e,g,q,ccedilla,egrave,eacute,ecircumflex,edieresis,oe" 	k="59" />
<hkern g1="quotedbl,quotesingle,quoteleft,quoteright,quotedblleft,quotedblright" 	g2="m,n,p,ntilde" 	k="20" />
<hkern g1="quotedbl,quotesingle,quoteleft,quoteright,quotedblleft,quotedblright" 	g2="a,agrave,aacute,acircumflex,atilde,adieresis,aring" 	k="50" />
<hkern g1="quotedbl,quotesingle,quoteleft,quoteright,quotedblleft,quotedblright" 	g2="s" 	k="42" />
</font>
</defs></svg> 